src/tb.vcd
$date
	Mon May 29 00:38:17 2023
$end
$version
	Icarus Verilog
$end
$timescale
	1ps
$end
$scope module tb $end
$var wire 4 ! EF [3:0] $end
$var wire 1 " IO0_RAM $end
$var wire 1 # IO0_ROM $end
$var wire 1 $ IO1_RAM $end
$var wire 1 % IO1_ROM $end
$var wire 1 & IO2_RAM $end
$var wire 1 ' IO2_ROM $end
$var wire 1 ( IO3_RAM $end
$var wire 1 ) IO3_ROM $end
$var wire 1 * clk $end
$var wire 1 + intr $end
$var wire 1 , rst_n $end
$var wire 1 - uart_rx $end
$var wire 8 . uo_out [7:0] $end
$var wire 8 / uio_out [7:0] $end
$var wire 8 0 uio_oe [7:0] $end
$var wire 1 1 uart_tx $end
$var wire 1 2 SCLK_ROM $end
$var wire 1 3 SCLK_RAM $end
$var wire 4 4 ROM_OEB [3:0] $end
$var wire 4 5 ROM_DO [3:0] $end
$var wire 4 6 RAM_OEB [3:0] $end
$var wire 4 7 RAM_DO [3:0] $end
$var wire 1 8 Q $end
$var wire 1 9 CS_ROM $end
$var wire 1 : CS_RAM $end
$scope module RAM $end
$var wire 1 3 CLK $end
$var wire 1 : CSn $end
$var wire 1 " IO0 $end
$var wire 1 $ IO1 $end
$var wire 1 & IO2 $end
$var wire 1 ( IO3 $end
$var wire 8 ; test_val [7:0] $end
$var reg 8 < CMD [7:0] $end
$var reg 8 = DIN [7:0] $end
$var reg 8 > DOUT [7:0] $end
$var reg 24 ? address [23:0] $end
$var reg 2 @ address_step [1:0] $end
$var reg 4 A delay_steps [3:0] $end
$var reg 1 B has_cmd $end
$var reg 4 C out_vals [3:0] $end
$var reg 4 D output_enables [3:0] $end
$var reg 1 E quad_mode $end
$var reg 4 F step_counter [3:0] $end
$upscope $end
$scope module W25Q128JVxIM $end
$var wire 1 2 CLK $end
$var wire 1 9 CSn $end
$var wire 1 # DIO $end
$var wire 1 G DIO_Output_Enable $end
$var wire 1 % DO $end
$var wire 1 ) HOLDn $end
$var wire 1 ' WPn $end
$var wire 1 H WPn_Output_Enable $end
$var wire 1 I flag_quad_mode_cs $end
$var wire 1 J flag_read_op $end
$var wire 1 K flag_slow_read $end
$var wire 1 L flag_quad_mode $end
$var parameter 65 M ADDRESS_MASK $end
$var parameter 32 N BLOCKSIZE $end
$var parameter 8 O DEVICE_ID $end
$var parameter 32 P HALFBLOCKSIZE $end
$var parameter 8 Q JEDEC_ID_HI $end
$var parameter 8 R JEDEC_ID_LO $end
$var parameter 8 S MANUFACTURER $end
$var parameter 64 T NUM_BLOCKS $end
$var parameter 66 U NUM_LOCKBITS $end
$var parameter 32 V NUM_PAGES $end
$var parameter 32 W NUM_SEC_PAGES $end
$var parameter 32 X PAGESIZE $end
$var parameter 32 Y SECTORSIZE $end
$var parameter 64 Z UNIQUE_ID $end
$var parameter 32 [ tBE1 $end
$var parameter 32 \ tBE2 $end
$var parameter 32 ] tCE_40 $end
$var parameter 32 ^ tCHDX $end
$var parameter 32 _ tCHHH $end
$var parameter 32 ` tCHHL $end
$var parameter 32 a tCHSH $end
$var parameter 32 b tCHSL $end
$var parameter 32 c tCLH $end
$var parameter 32 d tCLL $end
$var parameter 32 e tCLQV $end
$var parameter 32 f tCRLH $end
$var parameter 32 g tCRLL $end
$var parameter 32 h tCYC $end
$var parameter 32 i tCYCR $end
$var parameter 32 j tDP $end
$var parameter 32 k tDVCH $end
$var parameter 32 l tHHCH $end
$var parameter 32 m tHHQX $end
$var parameter 32 n tHLCH $end
$var parameter 32 o tHLQZ $end
$var parameter 32 p tPP $end
$var parameter 32 q tRES1 $end
$var parameter 32 r tRES2 $end
$var parameter 32 s tReset_Suspend_Max $end
$var parameter 32 t tSE $end
$var parameter 32 u tSHCH $end
$var parameter 32 v tSHQZ $end
$var parameter 32 w tSHSL_R $end
$var parameter 32 x tSHSL_W $end
$var parameter 32 y tSHWL $end
$var parameter 32 z tSLCH $end
$var parameter 32 { tSUS $end
$var parameter 32 | tW $end
$var parameter 32 } tWHSL $end
$var reg 1 ~ DIO_Output_Enable_reg $end
$var reg 1 !" DIO_Reg $end
$var reg 1 "" DO_Output_Enable $end
$var reg 1 #" DO_Reg $end
$var reg 1 $" HOLDn_Active $end
$var reg 1 %" HOLDn_Output_Enable $end
$var reg 1 &" HOLDn_Reg $end
$var reg 1 '" WPn_Output_Enable_reg $end
$var reg 1 (" WPn_Reg $end
$var reg 24 )" byte_address [23:0] $end
$var reg 8 *" cmd_byte [7:0] $end
$var reg 1 +" flag_enable_reset $end
$var reg 1 ," flag_erase_block $end
$var reg 1 -" flag_erase_bulk $end
$var reg 1 ." flag_erase_half_block $end
$var reg 1 /" flag_erase_secsi_sector $end
$var reg 1 0" flag_erase_sector $end
$var reg 1 1" flag_power_down $end
$var reg 1 2" flag_power_up_exec $end
$var reg 1 3" flag_power_up_sig_read $end
$var reg 1 4" flag_prog_page $end
$var reg 1 5" flag_prog_secsi_page $end
$var reg 1 6" flag_qpi_mode $end
$var reg 1 7" flag_read_op_reg $end
$var reg 1 8" flag_reset $end
$var reg 1 9" flag_reset_condition $end
$var reg 1 :" flag_resume $end
$var reg 1 ;" flag_set_read_param $end
$var reg 1 <" flag_slow_read_reg $end
$var reg 1 =" flag_suspend $end
$var reg 1 >" flag_suspend_enabled $end
$var reg 1 ?" flag_volatile_sr_write $end
$var reg 1 @" flag_write_status_reg $end
$var reg 8 A" in_byte [7:0] $end
$var reg 8 B" mode_reg [7:0] $end
$var reg 8 C" null_reg [7:0] $end
$var reg 8 D" out_byte [7:0] $end
$var reg 24 E" prog_byte_address [23:0] $end
$var reg 8 F" read_param_reg [7:0] $end
$var reg 8 G" read_param_reg_shadow [7:0] $end
$var reg 24 H" status_reg [23:0] $end
$var reg 24 I" status_reg_shadow [23:0] $end
$var reg 8 J" temp [7:0] $end
$var reg 1 K" temp_DIO_Output_Enable_reg $end
$var reg 1 L" temp_DO_Output_Enable $end
$var reg 1 M" timing_error $end
$var reg 8 N" wrap_reg [7:0] $end
$var integer 32 O" x [31:0] $end
$scope function is_qpi $end
$var reg 8 P" cmd_byte [7:0] $end
$upscope $end
$scope function lockbit_index $end
$var reg 24 Q" byte_address [23:0] $end
$upscope $end
$scope function write_protected $end
$var reg 24 R" byte_address [23:0] $end
$upscope $end
$scope begin disable_interface $end
$upscope $end
$scope begin erase_block $end
$var integer 32 S" x [31:0] $end
$upscope $end
$scope begin erase_bulk $end
$var integer 32 T" x [31:0] $end
$upscope $end
$scope begin erase_half_block $end
$var integer 32 U" x [31:0] $end
$upscope $end
$scope begin erase_resume $end
$upscope $end
$scope begin erase_secsi_sector $end
$var integer 32 V" x [31:0] $end
$upscope $end
$scope begin erase_sector $end
$var integer 32 W" x [31:0] $end
$upscope $end
$scope begin erase_suspend $end
$upscope $end
$scope begin initialization $end
$upscope $end
$scope begin power_down $end
$upscope $end
$scope begin power_up $end
$upscope $end
$scope begin program_to_page $end
$var integer 32 X" x [31:0] $end
$upscope $end
$scope begin program_to_secsi_page $end
$var integer 32 Y" x [31:0] $end
$upscope $end
$scope begin read_opcode $end
$upscope $end
$scope begin reset $end
$upscope $end
$scope begin set_read_param $end
$upscope $end
$scope begin write_status_reg $end
$upscope $end
$scope task chip_reset $end
$var integer 32 Z" x [31:0] $end
$upscope $end
$scope task dump_mem $end
$var integer 32 [" file [31:0] $end
$var integer 32 \" x [31:0] $end
$upscope $end
$scope task fill_page_latch $end
$var reg 1 ]" flag_secsi $end
$var reg 24 ^" prog_address [23:0] $end
$var reg 1 _" quadio $end
$var integer 32 `" address [31:0] $end
$var integer 32 a" x [31:0] $end
$upscope $end
$scope task get_negclk_holdn $end
$upscope $end
$scope task get_posclk_holdn $end
$upscope $end
$scope task input_byte $end
$var reg 8 b" input_data [7:0] $end
$var integer 32 c" x [31:0] $end
$upscope $end
$scope task input_byte_DTR $end
$var reg 8 d" input_data [7:0] $end
$var integer 32 e" x [31:0] $end
$upscope $end
$scope task input_byte_dual $end
$var reg 8 f" input_data [7:0] $end
$var integer 32 g" x [31:0] $end
$upscope $end
$scope task input_byte_dual_DTR $end
$var reg 8 h" input_data [7:0] $end
$var integer 32 i" x [31:0] $end
$upscope $end
$scope task input_byte_no1stclock $end
$var reg 8 j" input_data [7:0] $end
$var integer 32 k" x [31:0] $end
$upscope $end
$scope task input_byte_quad $end
$var reg 8 l" input_data [7:0] $end
$var integer 32 m" x [31:0] $end
$upscope $end
$scope task input_byte_quad_DTR $end
$var reg 8 n" input_data [7:0] $end
$var integer 32 o" x [31:0] $end
$upscope $end
$scope task input_byte_quad_no1stclock $end
$var reg 8 p" input_data [7:0] $end
$var integer 32 q" x [31:0] $end
$upscope $end
$scope task input_mode_dual $end
$var reg 6 r" input_data [5:0] $end
$var integer 32 s" x [31:0] $end
$upscope $end
$scope task output_byte $end
$var reg 8 t" output_data [7:0] $end
$var integer 32 u" x [31:0] $end
$upscope $end
$scope task output_byte_DTR $end
$var reg 8 v" output_data [7:0] $end
$var integer 32 w" x [31:0] $end
$upscope $end
$scope task output_byte_dual $end
$var reg 8 x" output_data [7:0] $end
$var integer 32 y" x [31:0] $end
$upscope $end
$scope task output_byte_dual_DTR $end
$var reg 8 z" output_data [7:0] $end
$var integer 32 {" x [31:0] $end
$upscope $end
$scope task output_byte_quad $end
$var reg 8 |" output_data [7:0] $end
$var integer 32 }" x [31:0] $end
$upscope $end
$scope task output_byte_quad_DTR $end
$var reg 8 ~" output_data [7:0] $end
$var integer 32 !# x [31:0] $end
$upscope $end
$scope task read_page $end
$var reg 2 "# fast_read [1:0] $end
$var reg 2 ## mem_read [1:0] $end
$var integer 32 $# x [31:0] $end
$upscope $end
$scope task read_page_dualio $end
$upscope $end
$scope task read_page_quadio $end
$var reg 8 %# cmd [7:0] $end
$var integer 32 &# x [31:0] $end
$upscope $end
$scope task wait_reset $end
$var reg 32 '# delay [31:0] $end
$var integer 32 (# num_iterations [31:0] $end
$var integer 32 )# waitx [31:0] $end
$upscope $end
$scope task wait_reset_suspend $end
$var reg 32 *# delay [31:0] $end
$var integer 32 +# num_iterations [31:0] $end
$var integer 32 ,# waitx [31:0] $end
$upscope $end
$scope task write_page $end
$var reg 1 -# quadio $end
$upscope $end
$upscope $end
$scope module as1802 $end
$var wire 16 .# PC [15:0] $end
$var wire 16 /# SP [15:0] $end
$var wire 1 * clk $end
$var wire 1 0# ena $end
$var wire 1 1# is_skip $end
$var wire 16 2# r0 [15:0] $end
$var wire 16 3# r1 [15:0] $end
$var wire 16 4# r10 [15:0] $end
$var wire 16 5# r11 [15:0] $end
$var wire 16 6# r12 [15:0] $end
$var wire 16 7# r13 [15:0] $end
$var wire 16 8# r14 [15:0] $end
$var wire 16 9# r15 [15:0] $end
$var wire 16 :# r2 [15:0] $end
$var wire 16 ;# r3 [15:0] $end
$var wire 16 <# r4 [15:0] $end
$var wire 16 =# r5 [15:0] $end
$var wire 16 ># r6 [15:0] $end
$var wire 16 ?# r7 [15:0] $end
$var wire 16 @# r8 [15:0] $end
$var wire 16 A# r9 [15:0] $end
$var wire 1 , rst_n $end
$var wire 16 B# sel_reg [15:0] $end
$var wire 1 C# should_branch $end
$var wire 8 D# ui_in [7:0] $end
$var wire 8 E# uio_in [7:0] $end
$var wire 8 F# uo_out [7:0] $end
$var wire 8 G# uio_out [7:0] $end
$var wire 8 H# uio_oe [7:0] $end
$var wire 8 I# uart_rec_byte [7:0] $end
$var wire 1 J# uart_has_byte $end
$var wire 1 K# uart_busy $end
$var wire 4 L# op_high [3:0] $end
$var wire 4 M# ireg_addr [3:0] $end
$var wire 1 N# intr $end
$var wire 1 O# flag_init_done $end
$var wire 1 P# cond_inv $end
$var wire 4 Q# ROM_DAT [3:0] $end
$var wire 4 R# RAM_DAT [3:0] $end
$var parameter 32 S# DFFRAM_SIZE $end
$var reg 8 T# B [7:0] $end
$var reg 1 U# CS_RAM $end
$var reg 1 V# CS_ROM $end
$var reg 8 W# D [7:0] $end
$var reg 1 X# DF $end
$var reg 4 Y# EF_l [3:0] $end
$var reg 1 Z# IE $end
$var reg 4 [# P [3:0] $end
$var reg 1 \# Q_l $end
$var reg 4 ]# RAM_DO [3:0] $end
$var reg 4 ^# RAM_OEB [3:0] $end
$var reg 4 _# RAM_delay_counter [3:0] $end
$var reg 4 `# RAM_delay_cycs [3:0] $end
$var reg 4 a# ROM_DO [3:0] $end
$var reg 4 b# ROM_OEB [3:0] $end
$var reg 2 c# S [1:0] $end
$var reg 1 d# SCLK_RAM $end
$var reg 1 e# SCLK_ROM $end
$var reg 8 f# T [7:0] $end
$var reg 4 g# X [3:0] $end
$var reg 16 h# addr_buff [15:0] $end
$var reg 1 i# branch_condition $end
$var reg 8 j# data_in [7:0] $end
$var reg 1 k# idle $end
$var reg 4 l# instr_cycle [3:0] $end
$var reg 8 m# instr_latch [7:0] $end
$var reg 16 n# last_addr [15:0] $end
$var reg 1 o# lda $end
$var reg 1 p# longbranch_condition $end
$var reg 8 q# mem_cycle [7:0] $end
$var reg 1 r# mem_write $end
$var reg 1 s# mrd_l $end
$var reg 1 t# mwr_l $end
$var reg 5 u# spi_cycle [4:0] $end
$var reg 8 v# spi_dat_out [7:0] $end
$var reg 6 w# startup_cycle [5:0] $end
$var reg 1 x# tpa_l $end
$var reg 1 y# uart_clear_status $end
$var reg 16 z# uart_div [15:0] $end
$var reg 1 {# uart_start $end
$var reg 1 |# will_interrupt $end
$scope module uart $end
$var wire 1 }# RX $end
$var wire 1 * clk $end
$var wire 1 y# clr_hb $end
$var wire 8 ~# din [7:0] $end
$var wire 16 !$ divisor [15:0] $end
$var wire 1 "$ rst $end
$var wire 1 {# start $end
$var wire 1 #$ txclk $end
$var wire 1 $$ rxclk $end
$var reg 1 %$ TX $end
$var reg 1 K# busy $end
$var reg 4 &$ counter [3:0] $end
$var reg 10 '$ data_buff [9:0] $end
$var reg 16 ($ div_counter [15:0] $end
$var reg 8 )$ dout [7:0] $end
$var reg 1 J# has_byte $end
$var reg 8 *$ receive_buff [7:0] $end
$var reg 4 +$ receive_counter [3:0] $end
$var reg 16 ,$ receive_div_counter [15:0] $end
$var reg 1 -$ receiving $end
$upscope $end
$upscope $end
$upscope $end
$enddefinitions $end
$comment Show the parameter values. $end
$dumpall
b10000000 S#
b10100 }
b1111101000 |
b100111000100000 {
b101 z
b1100100 y
b110010 x
b1010 w
b111 v
b101 u
b1110010011100001110000000 t
b1111101000 s
b111010100110000 r
b111010100110000 q
b10101010111001100000 p
b1100 o
b101 n
b111 m
b101 l
b10 k
b101110111000 j
b10100 i
b1010 h
b1000 g
b1000 f
b111 e
b100 d
b100 c
b101 b
b101 a
b101 `
b101 _
b101 ^
b111011100110101100101000000000 ]
b1000111100001101000110000000 \
b111001001110000111000000000 [
b100000010000000110000010000000101000001100000011100001000 Z
b1000000000000 Y
b100000000 X
b11 W
b10000000000000000 V
b100011110 U
b100000000 T
b11101111 S
b11000 R
b1110000 Q
b1000000000000000 P
b10111 O
b10000000000000000 N
b111111111111111111111111 M
$end
#0
$dumpvars
0-$
b0 ,$
bx +$
bx *$
b0 )$
b0 ($
bx '$
b0 &$
1%$
x$$
x#$
1"$
bx !$
bx ~#
1}#
0|#
0{#
bx z#
0y#
0x#
b1 w#
bx v#
b0 u#
1t#
1s#
xr#
b0 q#
xp#
xo#
b11111111 n#
bx m#
b0 l#
0k#
bx j#
xi#
bx h#
b0 g#
b0 f#
0e#
0d#
bx c#
b1111 b#
b0 a#
b110 `#
bx _#
b1111 ^#
b0 ]#
0\#
b0 [#
1Z#
bx Y#
0X#
b0 W#
1V#
1U#
bx T#
bz R#
bz Q#
xP#
0O#
0N#
bx M#
bx L#
0K#
0J#
b0 I#
b11111111 H#
b0 G#
bz011z010 F#
bz E#
b10zzzz D#
xC#
bx B#
bx A#
bx @#
bx ?#
bx >#
bx =#
bx <#
bx ;#
bx :#
bx 9#
bx 8#
bx 7#
bx 6#
bx 5#
bx 4#
bx 3#
b0 2#
x1#
10#
b0 /#
b0 .#
x-#
bx ,#
bx +#
bx *#
bx )#
bx (#
bx '#
bx &#
bx %#
bx $#
bx ##
bx "#
bx !#
bx ~"
bx }"
bx |"
bx {"
bx z"
bx y"
bx x"
bx w"
bx v"
bx u"
bx t"
bx s"
bx r"
bx q"
bx p"
bx o"
bx n"
bx m"
bx l"
bx k"
bx j"
bx i"
bx h"
bx g"
bx f"
bx e"
bx d"
bx c"
bx b"
bx a"
bx `"
x_"
bx ^"
x]"
bx \"
bx ["
b100011110 Z"
bx Y"
bx X"
bx W"
bx V"
bx U"
bx T"
bx S"
bx R"
bx Q"
bx P"
bx O"
b10000 N"
0M"
0L"
0K"
bx J"
bx I"
b0 H"
bx G"
b0 F"
bx E"
b0 D"
b0 C"
b0 B"
b0 A"
0@"
0?"
0>"
0="
0<"
0;"
x:"
09"
08"
07"
06"
05"
04"
03"
02"
01"
00"
0/"
0."
0-"
0,"
0+"
b0 *"
bx )"
0("
0'"
0&"
0%"
0$"
0#"
0""
0!"
0~
0L
0K
xJ
0I
0H
0G
b0 F
0E
b0 D
b0 C
0B
b0 A
b0 @
b0 ?
b0 >
b0 =
b0 <
bx ;
1:
19
08
b0 7
b1111 6
b0 5
b1111 4
03
02
11
b11111111 0
b0 /
bz011z010 .
1-
0,
0+
1*
z)
z(
z'
z&
z%
z$
z#
z"
bz !
$end
#1000
0J
#5000000
0*
#10000000
1*
#15000000
0*
#20000000
1*
#25000000
0*
#30000000
1*
#35000000
0*
#40000000
1*
#45000000
0*
#50000000
1*
#55000000
0*
#60000000
1*
#65000000
0*
#70000000
1*
#75000000
0*
#80000000
1*
#85000000
0*
#90000000
0"$
1,
1*
#95000000
0*
#100000000
b1111 R#
b11zz Q#
1"
1$
1&
1(
1'
b111111zz E#
1)
b111 c"
17"
1I
0:
b1111 7
b0 6
b1100 5
b11 4
09
0U#
b1111 ]#
b0 ^#
b11111100 /
b11111100 G#
b1100 a#
b11 0
b11 H#
b11 b#
b1 u#
b11111111 v#
bz001z000 .
bz001z000 F#
0V#
b10 w#
1*
#100001000
1J
#105000000
0*
#110000000
b11z1 Q#
b111111z1 E#
1#
b1101 5
b10 4
b11111110 v#
b11111101 /
b11111101 G#
b1101 a#
b10 0
b10 H#
b10 b#
b10 u#
1*
#115000000
0*
#120000000
b110 c"
b1xxxxxxx b"
12
bz001z100 .
bz001z100 F#
1e#
b11 u#
1*
#125000000
0*
#130000000
02
b11111100 v#
bz001z000 .
bz001z000 F#
0e#
b100 u#
1*
#135000000
0*
#140000000
b101 c"
b11xxxxxx b"
12
bz001z100 .
bz001z100 F#
1e#
b101 u#
1*
#145000000
0*
#150000000
02
b11111000 v#
bz001z000 .
bz001z000 F#
0e#
b110 u#
1*
#155000000
0*
#160000000
b100 c"
b111xxxxx b"
12
bz001z100 .
bz001z100 F#
1e#
b111 u#
1*
#165000000
0*
#170000000
02
b11110000 v#
bz001z000 .
bz001z000 F#
0e#
b1000 u#
1*
#175000000
0*
#180000000
b11 c"
b1111xxxx b"
12
bz001z100 .
bz001z100 F#
1e#
b1001 u#
1*
#185000000
0*
#190000000
02
b11100000 v#
bz001z000 .
bz001z000 F#
0e#
b1010 u#
1*
#195000000
0*
#200000000
b10 c"
b11111xxx b"
12
bz001z100 .
bz001z100 F#
1e#
b1011 u#
1*
#205000000
0*
#210000000
02
b11000000 v#
bz001z000 .
bz001z000 F#
0e#
b1100 u#
1*
#215000000
0*
#220000000
b1 c"
b111111xx b"
12
bz001z100 .
bz001z100 F#
1e#
b1101 u#
1*
#225000000
0*
#230000000
02
b10000000 v#
bz001z000 .
bz001z000 F#
0e#
b1110 u#
1*
#235000000
0*
#240000000
b0 c"
b1111111x b"
12
bz001z100 .
bz001z100 F#
1e#
b1111 u#
1*
#245000000
0*
#250000000
02
b0 v#
bz001z000 .
bz001z000 F#
0e#
b10000 u#
1*
#255000000
0*
#260000000
b11111111 P"
b11111111 *"
b11111111 A"
b11111111111111111111111111111111 c"
b11111111 b"
12
bz001z100 .
bz001z100 F#
1e#
b10001 u#
1*
#265000000
0*
#270000000
b11zz Q#
b111111zz E#
z#
b1100 5
b11 4
02
b11111100 /
b11111100 G#
b1100 a#
b11 0
b11 H#
b11 b#
bz001z000 .
bz001z000 F#
0e#
b0 u#
1*
#275000000
0*
#280000000
b1 =
b1 F
0I
13
19
1d#
bz101z010 .
bz101z010 F#
1V#
b11 w#
1*
#285000000
0*
#290000000
b101 R#
0$
b10111zz E#
0(
b111 c"
1I
b101 7
03
09
b1011100 /
b1011100 G#
b101 ]#
0d#
b1 u#
b10101011 v#
bz001z000 .
bz001z000 F#
0V#
b100 w#
1*
#295000000
0*
#300000000
b11z1 Q#
b10111z1 E#
1#
b1101 5
b10 4
b1010110 v#
b1011101 /
b1011101 G#
b1101 a#
b10 0
b10 H#
b10 b#
b10 u#
1*
#305000000
0*
#310000000
b110 c"
12
bz001z100 .
bz001z100 F#
1e#
b11 u#
1*
#315000000
0*
#320000000
b11z0 Q#
b10111z0 E#
0#
b1100 5
02
b10101100 v#
b1011100 /
b1011100 G#
b1100 a#
bz001z000 .
bz001z000 F#
0e#
b100 u#
1*
#325000000
0*
#330000000
b101 c"
b10111111 b"
12
bz001z100 .
bz001z100 F#
1e#
b101 u#
1*
#335000000
0*
#340000000
b11z1 Q#
b10111z1 E#
1#
b1101 5
02
b1011000 v#
b1011101 /
b1011101 G#
b1101 a#
bz001z000 .
bz001z000 F#
0e#
b110 u#
1*
#345000000
0*
#350000000
b100 c"
12
bz001z100 .
bz001z100 F#
1e#
b111 u#
1*
#355000000
0*
#360000000
b11z0 Q#
b10111z0 E#
0#
b1100 5
02
b10110000 v#
b1011100 /
b1011100 G#
b1100 a#
bz001z000 .
bz001z000 F#
0e#
b1000 u#
1*
#365000000
0*
#370000000
b11 c"
b10101111 b"
12
bz001z100 .
bz001z100 F#
1e#
b1001 u#
1*
#375000000
0*
#380000000
b11z1 Q#
b10111z1 E#
1#
b1101 5
02
b1100000 v#
b1011101 /
b1011101 G#
b1101 a#
bz001z000 .
bz001z000 F#
0e#
b1010 u#
1*
#385000000
0*
#390000000
b10 c"
12
bz001z100 .
bz001z100 F#
1e#
b1011 u#
1*
#395000000
0*
#400000000
b11z0 Q#
b10111z0 E#
0#
b1100 5
02
b11000000 v#
b1011100 /
b1011100 G#
b1100 a#
bz001z000 .
bz001z000 F#
0e#
b1100 u#
1*
#405000000
0*
#410000000
b1 c"
b10101011 b"
12
bz001z100 .
bz001z100 F#
1e#
b1101 u#
1*
#415000000
0*
#420000000
b11z1 Q#
b10111z1 E#
1#
b1101 5
02
b10000000 v#
b1011101 /
b1011101 G#
b1101 a#
bz001z000 .
bz001z000 F#
0e#
b1110 u#
1*
#425000000
0*
#430000000
b0 c"
12
bz001z100 .
bz001z100 F#
1e#
b1111 u#
1*
#435000000
0*
#440000000
02
b0 v#
bz001z000 .
bz001z000 F#
0e#
b10000 u#
1*
#445000000
0*
#450000000
12"
b10101011 P"
b10101011 *"
b10101011 A"
b111 c"
12
bz001z100 .
bz001z100 F#
1e#
b10001 u#
1*
#455000000
0*
#460000000
b11zz Q#
b10111zz E#
z#
b1100 5
b11 4
02
b1011100 /
b1011100 G#
b1100 a#
b11 0
b11 H#
b11 b#
bz001z000 .
bz001z000 F#
0e#
b0 u#
1*
#465000000
0*
#470000000
b11 =
b10 F
0I
13
19
1d#
bz101z010 .
bz101z010 F#
1V#
b101 w#
1*
#475000000
0*
#480000000
b0 =
b0 F
1I
1:
03
09
1U#
0d#
b1 u#
b110 v#
bz011z000 .
bz011z000 F#
0V#
b110 w#
1*
#485000000
0*
#490000000
b11z0 Q#
b10111z0 E#
0#
b10 4
b1100 v#
b10 0
b10 H#
b10 b#
b10 u#
1*
#495000000
0*
#500000000
b110 c"
b101011 b"
12
bz011z100 .
bz011z100 F#
1e#
b11 u#
1*
02"
#505000000
0*
#510000000
02
b11000 v#
bz011z000 .
bz011z000 F#
0e#
b100 u#
1*
#515000000
0*
#520000000
b101 c"
12
bz011z100 .
bz011z100 F#
1e#
b101 u#
1*
#525000000
0*
#530000000
02
b110000 v#
bz011z000 .
bz011z000 F#
0e#
b110 u#
1*
#535000000
0*
#540000000
b100 c"
b1011 b"
12
bz011z100 .
bz011z100 F#
1e#
b111 u#
1*
#545000000
0*
#550000000
02
b1100000 v#
bz011z000 .
bz011z000 F#
0e#
b1000 u#
1*
#555000000
0*
#560000000
b11 c"
12
bz011z100 .
bz011z100 F#
1e#
b1001 u#
1*
#565000000
0*
#570000000
02
b11000000 v#
bz011z000 .
bz011z000 F#
0e#
b1010 u#
1*
#575000000
0*
#580000000
b10 c"
b11 b"
12
bz011z100 .
bz011z100 F#
1e#
b1011 u#
1*
#585000000
0*
#590000000
b11z1 Q#
b10111z1 E#
1#
b1101 5
02
b10000000 v#
b1011101 /
b1011101 G#
b1101 a#
bz011z000 .
bz011z000 F#
0e#
b1100 u#
1*
#595000000
0*
#600000000
b1 c"
b111 b"
12
bz011z100 .
bz011z100 F#
1e#
b1101 u#
1*
#605000000
0*
#610000000
02
b0 v#
bz011z000 .
bz011z000 F#
0e#
b1110 u#
1*
#615000000
0*
#620000000
b0 c"
12
bz011z100 .
bz011z100 F#
1e#
b1111 u#
1*
#625000000
0*
#630000000
b11z0 Q#
b10111z0 E#
0#
b1100 5
02
b1011100 /
b1011100 G#
b1100 a#
bz011z000 .
bz011z000 F#
0e#
b10000 u#
1*
#635000000
0*
#640000000
b10 H"
b110 P"
b110 *"
b110 A"
b11111111111111111111111111111111 c"
b110 b"
12
bz011z100 .
bz011z100 F#
1e#
b10001 u#
1*
#645000000
0*
#650000000
b11zz Q#
b10111zz E#
z#
b11 4
02
b11 0
b11 H#
b11 b#
bz011z000 .
bz011z000 F#
0e#
b0 u#
1*
#655000000
0*
#660000000
0I
19
bz011z010 .
bz011z010 F#
1V#
b111 w#
1*
#665000000
0*
#670000000
b111 c"
1I
09
b1 u#
b1 v#
bz011z000 .
bz011z000 F#
0V#
b1000 w#
1*
#675000000
0*
#680000000
b11z0 Q#
b10111z0 E#
0#
b10 4
b10 v#
b10 0
b10 H#
b10 b#
b10 u#
1*
#685000000
0*
#690000000
b110 c"
12
bz011z100 .
bz011z100 F#
1e#
b11 u#
1*
#695000000
0*
#700000000
02
b100 v#
bz011z000 .
bz011z000 F#
0e#
b100 u#
1*
#705000000
0*
#710000000
b101 c"
12
bz011z100 .
bz011z100 F#
1e#
b101 u#
1*
#715000000
0*
#720000000
02
b1000 v#
bz011z000 .
bz011z000 F#
0e#
b110 u#
1*
#725000000
0*
#730000000
b100 c"
12
bz011z100 .
bz011z100 F#
1e#
b111 u#
1*
#735000000
0*
#740000000
02
b10000 v#
bz011z000 .
bz011z000 F#
0e#
b1000 u#
1*
#745000000
0*
#750000000
b11 c"
12
bz011z100 .
bz011z100 F#
1e#
b1001 u#
1*
#755000000
0*
#760000000
02
b100000 v#
bz011z000 .
bz011z000 F#
0e#
b1010 u#
1*
#765000000
0*
#770000000
b10 c"
12
bz011z100 .
bz011z100 F#
1e#
b1011 u#
1*
#775000000
0*
#780000000
02
b1000000 v#
bz011z000 .
bz011z000 F#
0e#
b1100 u#
1*
#785000000
0*
#790000000
b1 c"
b10 b"
12
bz011z100 .
bz011z100 F#
1e#
b1101 u#
1*
#795000000
0*
#800000000
02
b10000000 v#
bz011z000 .
bz011z000 F#
0e#
b1110 u#
1*
#805000000
0*
#810000000
b0 c"
b0 b"
12
bz011z100 .
bz011z100 F#
1e#
b1111 u#
1*
#815000000
0*
#820000000
b11z1 Q#
b10111z1 E#
1#
b1101 5
02
b0 v#
b1011101 /
b1011101 G#
b1101 a#
bz011z000 .
bz011z000 F#
0e#
b10000 u#
1*
#825000000
0*
#830000000
b0xxxxxxxx I"
07"
b1 P"
b1 *"
b1 A"
b111 c"
b1 b"
12
bz011z100 .
bz011z100 F#
1e#
b10001 u#
1*
#830001000
0J
#835000000
0*
#840000000
b11zz Q#
b10111zz E#
z#
b1100 5
b11 4
02
b1011100 /
b1011100 G#
b1100 a#
b11 0
b11 H#
b11 b#
bz011z000 .
bz011z000 F#
0e#
b0 u#
1*
#845000000
0*
#850000000
b1 u#
b10 v#
b1001 w#
1*
#855000000
0*
#860000000
b11z0 Q#
b10111z0 E#
0#
b10 4
b100 v#
b10 0
b10 H#
b10 b#
b10 u#
1*
#865000000
0*
#870000000
b110 c"
12
bz011z100 .
bz011z100 F#
1e#
b11 u#
1*
#875000000
0*
#880000000
02
b1000 v#
bz011z000 .
bz011z000 F#
0e#
b100 u#
1*
#885000000
0*
#890000000
b101 c"
12
bz011z100 .
bz011z100 F#
1e#
b101 u#
1*
#895000000
0*
#900000000
02
b10000 v#
bz011z000 .
bz011z000 F#
0e#
b110 u#
1*
#905000000
0*
#910000000
b100 c"
12
bz011z100 .
bz011z100 F#
1e#
b111 u#
1*
#915000000
0*
#920000000
02
b100000 v#
bz011z000 .
bz011z000 F#
0e#
b1000 u#
1*
#925000000
0*
#930000000
b11 c"
12
bz011z100 .
bz011z100 F#
1e#
b1001 u#
1*
#935000000
0*
#940000000
02
b1000000 v#
bz011z000 .
bz011z000 F#
0e#
b1010 u#
1*
#945000000
0*
#950000000
b10 c"
12
bz011z100 .
bz011z100 F#
1e#
b1011 u#
1*
#955000000
0*
#960000000
02
b10000000 v#
bz011z000 .
bz011z000 F#
0e#
b1100 u#
1*
#965000000
0*
#970000000
b1 c"
12
bz011z100 .
bz011z100 F#
1e#
b1101 u#
1*
#975000000
0*
#980000000
b11z1 Q#
b10111z1 E#
1#
b1101 5
02
b0 v#
b1011101 /
b1011101 G#
b1101 a#
bz011z000 .
bz011z000 F#
0e#
b1110 u#
1*
#985000000
0*
