src/tb.vcd
$date
	Fri May 26 10:25:54 2023
$end
$version
	Icarus Verilog
$end
$timescale
	1ps
$end
$scope module tb $end
$var wire 4 ! EF [3:0] $end
$var wire 1 " IO0 $end
$var wire 1 # IO1 $end
$var wire 1 $ IO2 $end
$var wire 1 % IO3 $end
$var wire 1 & clk $end
$var wire 1 ' intr $end
$var wire 1 ( rst_n $end
$var wire 1 ) uart_rx $end
$var wire 8 * uo_out [7:0] $end
$var wire 8 + uio_out [7:0] $end
$var wire 8 , uio_oe [7:0] $end
$var wire 1 - uart_tx $end
$var wire 1 . SCLK $end
$var wire 4 / QSPI_OEB [3:0] $end
$var wire 4 0 QSPI_DO [3:0] $end
$var wire 1 1 Q $end
$var wire 1 2 CS_ROM $end
$scope module W25Q128JVxIM $end
$var wire 1 . CLK $end
$var wire 1 2 CSn $end
$var wire 1 " DIO $end
$var wire 1 3 DIO_Output_Enable $end
$var wire 1 # DO $end
$var wire 1 % HOLDn $end
$var wire 1 $ WPn $end
$var wire 1 4 WPn_Output_Enable $end
$var wire 1 5 flag_quad_mode_cs $end
$var wire 1 6 flag_read_op $end
$var wire 1 7 flag_slow_read $end
$var wire 1 8 flag_quad_mode $end
$var reg 1 9 DIO_Output_Enable_reg $end
$var reg 1 : DIO_Reg $end
$var reg 1 ; DO_Output_Enable $end
$var reg 1 < DO_Reg $end
$var reg 1 = HOLDn_Active $end
$var reg 1 > HOLDn_Output_Enable $end
$var reg 1 ? HOLDn_Reg $end
$var reg 1 @ WPn_Output_Enable_reg $end
$var reg 1 A WPn_Reg $end
$var reg 24 B byte_address [23:0] $end
$var reg 8 C cmd_byte [7:0] $end
$var reg 1 D flag_enable_reset $end
$var reg 1 E flag_erase_block $end
$var reg 1 F flag_erase_bulk $end
$var reg 1 G flag_erase_half_block $end
$var reg 1 H flag_erase_secsi_sector $end
$var reg 1 I flag_erase_sector $end
$var reg 1 J flag_power_down $end
$var reg 1 K flag_power_up_exec $end
$var reg 1 L flag_power_up_sig_read $end
$var reg 1 M flag_prog_page $end
$var reg 1 N flag_prog_secsi_page $end
$var reg 1 O flag_qpi_mode $end
$var reg 1 P flag_read_op_reg $end
$var reg 1 Q flag_reset $end
$var reg 1 R flag_reset_condition $end
$var reg 1 S flag_resume $end
$var reg 1 T flag_set_read_param $end
$var reg 1 U flag_slow_read_reg $end
$var reg 1 V flag_suspend $end
$var reg 1 W flag_suspend_enabled $end
$var reg 1 X flag_volatile_sr_write $end
$var reg 1 Y flag_write_status_reg $end
$var reg 8 Z in_byte [7:0] $end
$var reg 8 [ mode_reg [7:0] $end
$var reg 8 \ null_reg [7:0] $end
$var reg 8 ] out_byte [7:0] $end
$var reg 24 ^ prog_byte_address [23:0] $end
$var reg 8 _ read_param_reg [7:0] $end
$var reg 8 ` read_param_reg_shadow [7:0] $end
$var reg 24 a status_reg [23:0] $end
$var reg 24 b status_reg_shadow [23:0] $end
$var reg 8 c temp [7:0] $end
$var reg 1 d temp_DIO_Output_Enable_reg $end
$var reg 1 e temp_DO_Output_Enable $end
$var reg 1 f timing_error $end
$var reg 8 g wrap_reg [7:0] $end
$var integer 32 h x [31:0] $end
$scope function is_qpi $end
$var reg 8 i cmd_byte [7:0] $end
$upscope $end
$scope function lockbit_index $end
$var reg 24 j byte_address [23:0] $end
$upscope $end
$scope function write_protected $end
$var reg 24 k byte_address [23:0] $end
$upscope $end
$scope begin disable_interface $end
$upscope $end
$scope begin erase_block $end
$var integer 32 l x [31:0] $end
$upscope $end
$scope begin erase_bulk $end
$var integer 32 m x [31:0] $end
$upscope $end
$scope begin erase_half_block $end
$var integer 32 n x [31:0] $end
$upscope $end
$scope begin erase_resume $end
$upscope $end
$scope begin erase_secsi_sector $end
$var integer 32 o x [31:0] $end
$upscope $end
$scope begin erase_sector $end
$var integer 32 p x [31:0] $end
$upscope $end
$scope begin erase_suspend $end
$upscope $end
$scope begin initialization $end
$upscope $end
$scope begin power_down $end
$upscope $end
$scope begin power_up $end
$upscope $end
$scope begin program_to_page $end
$var integer 32 q x [31:0] $end
$upscope $end
$scope begin program_to_secsi_page $end
$var integer 32 r x [31:0] $end
$upscope $end
$scope begin read_opcode $end
$upscope $end
$scope begin reset $end
$upscope $end
$scope begin set_read_param $end
$upscope $end
$scope begin write_status_reg $end
$upscope $end
$scope task chip_reset $end
$var integer 32 s x [31:0] $end
$upscope $end
$scope task dump_mem $end
$var integer 32 t file [31:0] $end
$var integer 32 u x [31:0] $end
$upscope $end
$scope task fill_page_latch $end
$var reg 1 v flag_secsi $end
$var reg 24 w prog_address [23:0] $end
$var reg 1 x quadio $end
$var integer 32 y address [31:0] $end
$var integer 32 z x [31:0] $end
$upscope $end
$scope task get_negclk_holdn $end
$upscope $end
$scope task get_posclk_holdn $end
$upscope $end
$scope task input_byte $end
$var reg 8 { input_data [7:0] $end
$var integer 32 | x [31:0] $end
$upscope $end
$scope task input_byte_DTR $end
$var reg 8 } input_data [7:0] $end
$var integer 32 ~ x [31:0] $end
$upscope $end
$scope task input_byte_dual $end
$var reg 8 !" input_data [7:0] $end
$var integer 32 "" x [31:0] $end
$upscope $end
$scope task input_byte_dual_DTR $end
$var reg 8 #" input_data [7:0] $end
$var integer 32 $" x [31:0] $end
$upscope $end
$scope task input_byte_no1stclock $end
$var reg 8 %" input_data [7:0] $end
$var integer 32 &" x [31:0] $end
$upscope $end
$scope task input_byte_quad $end
$var reg 8 '" input_data [7:0] $end
$var integer 32 (" x [31:0] $end
$upscope $end
$scope task input_byte_quad_DTR $end
$var reg 8 )" input_data [7:0] $end
$var integer 32 *" x [31:0] $end
$upscope $end
$scope task input_byte_quad_no1stclock $end
$var reg 8 +" input_data [7:0] $end
$var integer 32 ," x [31:0] $end
$upscope $end
$scope task input_mode_dual $end
$var reg 6 -" input_data [5:0] $end
$var integer 32 ." x [31:0] $end
$upscope $end
$scope task output_byte $end
$var reg 8 /" output_data [7:0] $end
$var integer 32 0" x [31:0] $end
$upscope $end
$scope task output_byte_DTR $end
$var reg 8 1" output_data [7:0] $end
$var integer 32 2" x [31:0] $end
$upscope $end
$scope task output_byte_dual $end
$var reg 8 3" output_data [7:0] $end
$var integer 32 4" x [31:0] $end
$upscope $end
$scope task output_byte_dual_DTR $end
$var reg 8 5" output_data [7:0] $end
$var integer 32 6" x [31:0] $end
$upscope $end
$scope task output_byte_quad $end
$var reg 8 7" output_data [7:0] $end
$var integer 32 8" x [31:0] $end
$upscope $end
$scope task output_byte_quad_DTR $end
$var reg 8 9" output_data [7:0] $end
$var integer 32 :" x [31:0] $end
$upscope $end
$scope task read_page $end
$var reg 2 ;" fast_read [1:0] $end
$var reg 2 <" mem_read [1:0] $end
$var integer 32 =" x [31:0] $end
$upscope $end
$scope task read_page_dualio $end
$upscope $end
$scope task read_page_quadio $end
$var reg 8 >" cmd [7:0] $end
$var integer 32 ?" x [31:0] $end
$upscope $end
$scope task wait_reset $end
$var reg 32 @" delay [31:0] $end
$var integer 32 A" num_iterations [31:0] $end
$var integer 32 B" waitx [31:0] $end
$upscope $end
$scope task wait_reset_suspend $end
$var reg 32 C" delay [31:0] $end
$var integer 32 D" num_iterations [31:0] $end
$var integer 32 E" waitx [31:0] $end
$upscope $end
$scope task write_page $end
$var reg 1 F" quadio $end
$upscope $end
$upscope $end
$scope module as1802 $end
$var wire 16 G" PC [15:0] $end
$var wire 16 H" SP [15:0] $end
$var wire 1 & clk $end
$var wire 1 I" ena $end
$var wire 1 J" is_skip $end
$var wire 16 K" r0 [15:0] $end
$var wire 16 L" r1 [15:0] $end
$var wire 16 M" r10 [15:0] $end
$var wire 16 N" r11 [15:0] $end
$var wire 16 O" r12 [15:0] $end
$var wire 16 P" r13 [15:0] $end
$var wire 16 Q" r14 [15:0] $end
$var wire 16 R" r15 [15:0] $end
$var wire 16 S" r2 [15:0] $end
$var wire 16 T" r3 [15:0] $end
$var wire 16 U" r4 [15:0] $end
$var wire 16 V" r5 [15:0] $end
$var wire 16 W" r6 [15:0] $end
$var wire 16 X" r7 [15:0] $end
$var wire 16 Y" r8 [15:0] $end
$var wire 16 Z" r9 [15:0] $end
$var wire 1 ( rst_n $end
$var wire 16 [" sel_reg [15:0] $end
$var wire 1 \" should_branch $end
$var wire 8 ]" ui_in [7:0] $end
$var wire 8 ^" uio_in [7:0] $end
$var wire 8 _" uo_out [7:0] $end
$var wire 8 `" uio_out [7:0] $end
$var wire 8 a" uio_oe [7:0] $end
$var wire 8 b" uart_rec_byte [7:0] $end
$var wire 1 c" uart_has_byte $end
$var wire 1 d" uart_busy $end
$var wire 4 e" op_high [3:0] $end
$var wire 4 f" ireg_addr [3:0] $end
$var wire 1 g" intr $end
$var wire 1 h" flag_init_done $end
$var wire 1 i" cond_inv $end
$var wire 4 j" QSPI_DAT [3:0] $end
$var reg 8 k" B [7:0] $end
$var reg 1 l" CS_ROM $end
$var reg 8 m" D [7:0] $end
$var reg 1 n" DF $end
$var reg 4 o" EF_l [3:0] $end
$var reg 1 p" IE $end
$var reg 4 q" P [3:0] $end
$var reg 4 r" QSPI_DO [3:0] $end
$var reg 4 s" QSPI_OEB [3:0] $end
$var reg 1 t" Q_l $end
$var reg 2 u" S [1:0] $end
$var reg 1 v" SCLK $end
$var reg 8 w" T [7:0] $end
$var reg 4 x" X [3:0] $end
$var reg 16 y" addr_buff [15:0] $end
$var reg 1 z" branch_condition $end
$var reg 8 {" data_in [7:0] $end
$var reg 1 |" idle $end
$var reg 4 }" instr_cycle [3:0] $end
$var reg 8 ~" instr_latch [7:0] $end
$var reg 16 !# last_addr [15:0] $end
$var reg 1 "# lda $end
$var reg 1 ## longbranch_condition $end
$var reg 5 $# mem_cycle [4:0] $end
$var reg 1 %# mem_write $end
$var reg 1 &# mrd_l $end
$var reg 1 '# mwr_l $end
$var reg 5 (# spi_cycle [4:0] $end
$var reg 8 )# spi_dat_out [7:0] $end
$var reg 6 *# startup_cycle [5:0] $end
$var reg 1 +# tpa_l $end
$var reg 1 ,# uart_clear_status $end
$var reg 16 -# uart_div [15:0] $end
$var reg 1 .# uart_start $end
$var reg 1 /# will_interrupt $end
$scope module uart $end
$var wire 1 0# RX $end
$var wire 1 & clk $end
$var wire 1 ,# clr_hb $end
$var wire 8 1# din [7:0] $end
$var wire 16 2# divisor [15:0] $end
$var wire 1 3# rst $end
$var wire 1 .# start $end
$var wire 1 4# txclk $end
$var wire 1 5# rxclk $end
$var reg 1 6# TX $end
$var reg 1 d" busy $end
$var reg 4 7# counter [3:0] $end
$var reg 10 8# data_buff [9:0] $end
$var reg 16 9# div_counter [15:0] $end
$var reg 8 :# dout [7:0] $end
$var reg 1 c" has_byte $end
$var reg 8 ;# receive_buff [7:0] $end
$var reg 4 <# receive_counter [3:0] $end
$var reg 16 =# receive_div_counter [15:0] $end
$var reg 1 ># receiving $end
$upscope $end
$upscope $end
$upscope $end
$enddefinitions $end
#0
$dumpvars
0>#
b0 =#
bx <#
bx ;#
b0 :#
b0 9#
bx 8#
b0 7#
16#
x5#
x4#
13#
bx 2#
bx 1#
10#
0/#
0.#
bx -#
0,#
0+#
b1 *#
bx )#
b0 (#
1'#
1&#
x%#
b0 $#
x##
x"#
b11111111 !#
bx ~"
b0 }"
0|"
bx {"
xz"
bx y"
b0 x"
b0 w"
0v"
bx u"
0t"
b1111 s"
b0 r"
b0 q"
1p"
bx o"
0n"
b0 m"
1l"
bx k"
bz j"
xi"
0h"
0g"
bx f"
bx e"
0d"
0c"
b0 b"
bz1111 a"
bz0000 `"
bz1z010 _"
b0zzzz ^"
b10zzzz ]"
x\"
bx ["
bx Z"
bx Y"
bx X"
bx W"
bx V"
bx U"
bx T"
bx S"
bx R"
bx Q"
bx P"
bx O"
bx N"
bx M"
bx L"
b0 K"
xJ"
1I"
b0 H"
b0 G"
xF"
bx E"
bx D"
bx C"
bx B"
bx A"
bx @"
bx ?"
bx >"
bx ="
bx <"
bx ;"
bx :"
bx 9"
bx 8"
bx 7"
bx 6"
bx 5"
bx 4"
bx 3"
bx 2"
bx 1"
bx 0"
bx /"
bx ."
bx -"
bx ,"
bx +"
bx *"
bx )"
bx ("
bx '"
bx &"
bx %"
bx $"
bx #"
bx ""
bx !"
bx ~
bx }
bx |
bx {
bx z
bx y
xx
bx w
xv
bx u
bx t
b100011110 s
bx r
bx q
bx p
bx o
bx n
bx m
bx l
bx k
bx j
bx i
bx h
b10000 g
0f
0e
0d
bx c
bx b
b0 a
bx `
b0 _
bx ^
b0 ]
b0 \
b0 [
b0 Z
0Y
0X
0W
0V
0U
0T
xS
0R
0Q
0P
0O
0N
0M
0L
0K
0J
0I
0H
0G
0F
0E
0D
b0 C
bx B
0A
0@
0?
0>
0=
0<
0;
0:
09
08
07
x6
05
04
03
12
01
b0 0
b1111 /
0.
1-
bz1111 ,
bz0000 +
bz1z010 *
1)
0(
0'
1&
z%
z$
z#
z"
bz !
$end
#1000
06
#5000000
0&
#10000000
1&
#15000000
0&
#20000000
1&
#25000000
0&
#30000000
1&
#35000000
0&
#40000000
1&
#45000000
0&
#50000000
1&
#55000000
0&
#60000000
1&
#65000000
0&
#70000000
1&
#75000000
0&
#80000000
1&
#85000000
0&
#90000000
03#
1(
1&
#95000000
0&
#100000000
b111 |
1P
15
02
b1 (#
b11111111 )#
bz1z000 *
bz1z000 _"
0l"
b10 *#
b11zz j"
1$
b11zz ^"
1%
b1100 0
b11 /
bz1100 +
bz1100 `"
b1100 r"
bz0011 ,
bz0011 a"
b11 s"
1&
#100001000
16
#105000000
0&
#110000000
b11z1 j"
b11z1 ^"
1"
b1101 0
b10 /
b11111110 )#
bz1101 +
bz1101 `"
b1101 r"
bz0010 ,
bz0010 a"
b10 s"
b10 (#
1&
#115000000
0&
#120000000
b110 |
b1xxxxxxx {
1.
bz1z100 *
bz1z100 _"
1v"
b11 (#
1&
#125000000
0&
#130000000
0.
b11111100 )#
bz1z000 *
bz1z000 _"
0v"
b100 (#
1&
#135000000
0&
#140000000
b101 |
b11xxxxxx {
1.
bz1z100 *
bz1z100 _"
1v"
b101 (#
1&
#145000000
0&
#150000000
0.
b11111000 )#
bz1z000 *
bz1z000 _"
0v"
b110 (#
1&
#155000000
0&
#160000000
b100 |
b111xxxxx {
1.
bz1z100 *
bz1z100 _"
1v"
b111 (#
1&
#165000000
0&
#170000000
0.
b11110000 )#
bz1z000 *
bz1z000 _"
0v"
b1000 (#
1&
#175000000
0&
#180000000
b11 |
b1111xxxx {
1.
bz1z100 *
bz1z100 _"
1v"
b1001 (#
1&
#185000000
0&
#190000000
0.
b11100000 )#
bz1z000 *
bz1z000 _"
0v"
b1010 (#
1&
#195000000
0&
#200000000
b10 |
b11111xxx {
1.
bz1z100 *
bz1z100 _"
1v"
b1011 (#
1&
#205000000
0&
#210000000
0.
b11000000 )#
bz1z000 *
bz1z000 _"
0v"
b1100 (#
1&
#215000000
0&
#220000000
b1 |
b111111xx {
1.
bz1z100 *
bz1z100 _"
1v"
b1101 (#
1&
#225000000
0&
#230000000
0.
b10000000 )#
bz1z000 *
bz1z000 _"
0v"
b1110 (#
1&
#235000000
0&
#240000000
b0 |
b1111111x {
1.
bz1z100 *
bz1z100 _"
1v"
b1111 (#
1&
#245000000
0&
#250000000
0.
b0 )#
bz1z000 *
bz1z000 _"
0v"
b10000 (#
1&
#255000000
0&
#260000000
b11111111 i
b11111111 C
b11111111 Z
b11111111111111111111111111111111 |
b11111111 {
1.
bz1z100 *
bz1z100 _"
1v"
b10001 (#
1&
#265000000
0&
#270000000
b11zz j"
b11zz ^"
z"
b1100 0
b11 /
0.
bz1100 +
bz1100 `"
b1100 r"
bz0011 ,
bz0011 a"
b11 s"
bz1z000 *
bz1z000 _"
0v"
b0 (#
1&
#275000000
0&
#280000000
05
12
bz1z010 *
bz1z010 _"
1l"
b11 *#
1&
#285000000
0&
#290000000
b111 |
15
02
b1 (#
b10101011 )#
bz1z000 *
bz1z000 _"
0l"
b100 *#
1&
#295000000
0&
#300000000
b11z1 j"
b11z1 ^"
1"
b1101 0
b10 /
b1010110 )#
bz1101 +
bz1101 `"
b1101 r"
bz0010 ,
bz0010 a"
b10 s"
b10 (#
1&
#305000000
0&
#310000000
b110 |
1.
bz1z100 *
bz1z100 _"
1v"
b11 (#
1&
#315000000
0&
#320000000
b11z0 j"
b11z0 ^"
0"
b1100 0
0.
b10101100 )#
bz1100 +
bz1100 `"
b1100 r"
bz1z000 *
bz1z000 _"
0v"
b100 (#
1&
#325000000
0&
#330000000
b101 |
b10111111 {
1.
bz1z100 *
bz1z100 _"
1v"
b101 (#
1&
#335000000
0&
#340000000
b11z1 j"
b11z1 ^"
1"
b1101 0
0.
b1011000 )#
bz1101 +
bz1101 `"
b1101 r"
bz1z000 *
bz1z000 _"
0v"
b110 (#
1&
#345000000
0&
#350000000
b100 |
1.
bz1z100 *
bz1z100 _"
1v"
b111 (#
1&
#355000000
0&
#360000000
b11z0 j"
b11z0 ^"
0"
b1100 0
0.
b10110000 )#
bz1100 +
bz1100 `"
b1100 r"
bz1z000 *
bz1z000 _"
0v"
b1000 (#
1&
#365000000
0&
#370000000
b11 |
b10101111 {
1.
bz1z100 *
bz1z100 _"
1v"
b1001 (#
1&
#375000000
0&
#380000000
b11z1 j"
b11z1 ^"
1"
b1101 0
0.
b1100000 )#
bz1101 +
bz1101 `"
b1101 r"
bz1z000 *
bz1z000 _"
0v"
b1010 (#
1&
#385000000
0&
#390000000
b10 |
1.
bz1z100 *
bz1z100 _"
1v"
b1011 (#
1&
#395000000
0&
#400000000
b11z0 j"
b11z0 ^"
0"
b1100 0
0.
b11000000 )#
bz1100 +
bz1100 `"
b1100 r"
bz1z000 *
bz1z000 _"
0v"
b1100 (#
1&
#405000000
0&
#410000000
b1 |
b10101011 {
1.
bz1z100 *
bz1z100 _"
1v"
b1101 (#
1&
#415000000
0&
#420000000
b11z1 j"
b11z1 ^"
1"
b1101 0
0.
b10000000 )#
bz1101 +
bz1101 `"
b1101 r"
bz1z000 *
bz1z000 _"
0v"
b1110 (#
1&
#425000000
0&
#430000000
b0 |
1.
bz1z100 *
bz1z100 _"
1v"
b1111 (#
1&
#435000000
0&
#440000000
0.
b0 )#
bz1z000 *
bz1z000 _"
0v"
b10000 (#
1&
#445000000
0&
#450000000
1K
b10101011 i
b10101011 C
b10101011 Z
b111 |
1.
bz1z100 *
bz1z100 _"
1v"
b10001 (#
1&
#455000000
0&
#460000000
b11zz j"
b11zz ^"
z"
b1100 0
b11 /
0.
bz1100 +
bz1100 `"
b1100 r"
bz0011 ,
bz0011 a"
b11 s"
bz1z000 *
bz1z000 _"
0v"
b0 (#
1&
#465000000
0&
#470000000
05
12
bz1z010 *
bz1z010 _"
1l"
b101 *#
1&
#475000000
0&
#480000000
15
02
b1 (#
b110 )#
bz1z000 *
bz1z000 _"
0l"
b110 *#
1&
#485000000
0&
#490000000
b11z0 j"
b11z0 ^"
0"
b10 /
b1100 )#
bz0010 ,
bz0010 a"
b10 s"
b10 (#
1&
#495000000
0&
#500000000
b110 |
b101011 {
1.
bz1z100 *
bz1z100 _"
1v"
b11 (#
1&
0K
#505000000
0&
#510000000
0.
b11000 )#
bz1z000 *
bz1z000 _"
0v"
b100 (#
1&
#515000000
0&
#520000000
b101 |
1.
bz1z100 *
bz1z100 _"
1v"
b101 (#
1&
#525000000
0&
#530000000
0.
b110000 )#
bz1z000 *
bz1z000 _"
0v"
b110 (#
1&
#535000000
0&
#540000000
b100 |
b1011 {
1.
bz1z100 *
bz1z100 _"
1v"
b111 (#
1&
#545000000
0&
#550000000
0.
b1100000 )#
bz1z000 *
bz1z000 _"
0v"
b1000 (#
1&
#555000000
0&
#560000000
b11 |
1.
bz1z100 *
bz1z100 _"
1v"
b1001 (#
1&
#565000000
0&
#570000000
0.
b11000000 )#
bz1z000 *
bz1z000 _"
0v"
b1010 (#
1&
#575000000
0&
#580000000
b10 |
b11 {
1.
bz1z100 *
bz1z100 _"
1v"
b1011 (#
1&
#585000000
0&
#590000000
b11z1 j"
b11z1 ^"
1"
b1101 0
0.
b10000000 )#
bz1101 +
bz1101 `"
b1101 r"
bz1z000 *
bz1z000 _"
0v"
b1100 (#
1&
#595000000
0&
#600000000
b1 |
b111 {
1.
bz1z100 *
bz1z100 _"
1v"
b1101 (#
1&
#605000000
0&
#610000000
0.
b0 )#
bz1z000 *
bz1z000 _"
0v"
b1110 (#
1&
#615000000
0&
#620000000
b0 |
1.
bz1z100 *
bz1z100 _"
1v"
b1111 (#
1&
#625000000
0&
#630000000
b11z0 j"
b11z0 ^"
0"
b1100 0
0.
bz1100 +
bz1100 `"
b1100 r"
bz1z000 *
bz1z000 _"
0v"
b10000 (#
1&
#635000000
0&
#640000000
b10 a
b110 i
b110 C
b110 Z
b11111111111111111111111111111111 |
b110 {
1.
bz1z100 *
bz1z100 _"
1v"
b10001 (#
1&
#645000000
0&
#650000000
b11zz j"
b11zz ^"
z"
b11 /
0.
bz0011 ,
bz0011 a"
b11 s"
bz1z000 *
bz1z000 _"
0v"
b0 (#
1&
#655000000
0&
#660000000
05
12
bz1z010 *
bz1z010 _"
1l"
b111 *#
1&
#665000000
0&
#670000000
b111 |
15
02
b1 (#
b1 )#
bz1z000 *
bz1z000 _"
0l"
b1000 *#
1&
#675000000
0&
#680000000
b11z0 j"
b11z0 ^"
0"
b10 /
b10 )#
bz0010 ,
bz0010 a"
b10 s"
b10 (#
1&
#685000000
0&
#690000000
b110 |
1.
bz1z100 *
bz1z100 _"
1v"
b11 (#
1&
#695000000
0&
#700000000
0.
b100 )#
bz1z000 *
bz1z000 _"
0v"
b100 (#
1&
#705000000
0&
#710000000
b101 |
1.
bz1z100 *
bz1z100 _"
1v"
b101 (#
1&
#715000000
0&
#720000000
0.
b1000 )#
bz1z000 *
bz1z000 _"
0v"
b110 (#
1&
#725000000
0&
#730000000
b100 |
1.
bz1z100 *
bz1z100 _"
1v"
b111 (#
1&
#735000000
0&
#740000000
0.
b10000 )#
bz1z000 *
bz1z000 _"
0v"
b1000 (#
1&
#745000000
0&
#750000000
b11 |
1.
bz1z100 *
bz1z100 _"
1v"
b1001 (#
1&
#755000000
0&
#760000000
0.
b100000 )#
bz1z000 *
bz1z000 _"
0v"
b1010 (#
1&
#765000000
0&
#770000000
b10 |
1.
bz1z100 *
bz1z100 _"
1v"
b1011 (#
1&
#775000000
0&
#780000000
0.
b1000000 )#
bz1z000 *
bz1z000 _"
0v"
b1100 (#
1&
#785000000
0&
#790000000
b1 |
b10 {
1.
bz1z100 *
bz1z100 _"
1v"
b1101 (#
1&
#795000000
0&
#800000000
0.
b10000000 )#
bz1z000 *
bz1z000 _"
0v"
b1110 (#
1&
#805000000
0&
#810000000
b0 |
b0 {
1.
bz1z100 *
bz1z100 _"
1v"
b1111 (#
1&
#815000000
0&
#820000000
b11z1 j"
b11z1 ^"
1"
b1101 0
0.
b0 )#
bz1101 +
bz1101 `"
b1101 r"
bz1z000 *
bz1z000 _"
0v"
b10000 (#
1&
#825000000
0&
#830000000
b0xxxxxxxx b
0P
b1 i
b1 C
b1 Z
b111 |
b1 {
1.
bz1z100 *
bz1z100 _"
1v"
b10001 (#
1&
#830001000
06
#835000000
0&
#840000000
b11zz j"
b11zz ^"
z"
b1100 0
b11 /
0.
bz1100 +
bz1100 `"
b1100 r"
bz0011 ,
bz0011 a"
b11 s"
bz1z000 *
bz1z000 _"
0v"
b0 (#
1&
#845000000
0&
#850000000
b1 (#
b10 )#
b1001 *#
1&
#855000000
0&
#860000000
b11z0 j"
b11z0 ^"
0"
b10 /
b100 )#
bz0010 ,
bz0010 a"
b10 s"
b10 (#
1&
#865000000
0&
#870000000
b110 |
1.
bz1z100 *
bz1z100 _"
1v"
b11 (#
1&
#875000000
0&
#880000000
0.
b1000 )#
bz1z000 *
bz1z000 _"
0v"
b100 (#
1&
#885000000
0&
#890000000
b101 |
1.
bz1z100 *
bz1z100 _"
1v"
b101 (#
1&
#895000000
0&
#900000000
0.
b10000 )#
bz1z000 *
bz1z000 _"
0v"
b110 (#
1&
#905000000
0&
#910000000
b100 |
1.
bz1z100 *
bz1z100 _"
1v"
b111 (#
1&
#915000000
0&
#920000000
0.
b100000 )#
bz1z000 *
bz1z000 _"
0v"
b1000 (#
1&
#925000000
0&
#930000000
b11 |
1.
bz1z100 *
bz1z100 _"
1v"
b1001 (#
1&
#935000000
0&
#940000000
0.
b1000000 )#
bz1z000 *
bz1z000 _"
0v"
b1010 (#
1&
#945000000
0&
#950000000
b10 |
1.
bz1z100 *
bz1z100 _"
1v"
b1011 (#
1&
#955000000
0&
#960000000
0.
b10000000 )#
bz1z000 *
bz1z000 _"
0v"
b1100 (#
1&
#965000000
0&
#970000000
b1 |
1.
bz1z100 *
bz1z100 _"
1v"
b1101 (#
1&
#975000000
0&
#980000000
b11z1 j"
b11z1 ^"
1"
b1101 0
0.
b0 )#
bz1101 +
bz1101 `"
b1101 r"
bz1z000 *
bz1z000 _"
0v"
b1110 (#
1&
#985000000
0&
#990000000
b0 |
b11 {
1.
bz1z100 *
bz1z100 _"
1v"
b1111 (#
1&
#995000000
0&
#1000000000
b11z0 j"
b11z0 ^"
0"
b1100 0
0.
bz1100 +
bz1100 `"
b1100 r"
bz1z000 *
bz1z000 _"
0v"
b10000 (#
1&
#1005000000
0&
#1010000000
1Y
b10 b
b10 Z
b11111111111111111111111111111111 |
b10 {
1.
bz1z100 *
bz1z100 _"
1v"
b10001 (#
1&
#1015000000
0&
#1020000000
b11zz j"
b11zz ^"
z"
b11 /
0.
bz0011 ,
bz0011 a"
b11 s"
bz1z000 *
bz1z000 _"
0v"
b0 (#
1&
#1025000000
0&
#1030000000
b1 (#
b10 )#
b1010 *#
1&
#1035000000
0&
#1040000000
b11z0 j"
b11z0 ^"
0"
b10 /
b100 )#
bz0010 ,
bz0010 a"
b10 s"
b10 (#
1&
#1045000000
0&
#1050000000
b0xxxxxxx %"
b110 &"
0Y
1.
bz1z100 *
bz1z100 _"
1v"
b11 (#
1&
#1055000000
0&
#1060000000
0.
b1000 )#
bz1z000 *
bz1z000 _"
0v"
b100 (#
1&
#1065000000
0&
#1070000000
b101 &"
b0xxxxxx %"
1.
bz1z100 *
bz1z100 _"
1v"
b101 (#
1&
#1075000000
0&
#1080000000
0.
b10000 )#
bz1z000 *
bz1z000 _"
0v"
b110 (#
1&
#1085000000
0&
#1090000000
b100 &"
b0xxxxx %"
1.
bz1z100 *
bz1z100 _"
1v"
b111 (#
1&
#1095000000
0&
#1100000000
0.
b100000 )#
bz1z000 *
bz1z000 _"
0v"
b1000 (#
1&
#1105000000
0&
#1110000000
b11 &"
b0xxxx %"
1.
bz1z100 *
bz1z100 _"
1v"
b1001 (#
1&
#1115000000
0&
#1120000000
0.
b1000000 )#
bz1z000 *
bz1z000 _"
0v"
b1010 (#
1&
#1125000000
0&
#1130000000
b10 &"
b0xxx %"
1.
bz1z100 *
bz1z100 _"
1v"
b1011 (#
1&
#1135000000
0&
#1140000000
0.
b10000000 )#
bz1z000 *
bz1z000 _"
0v"
b1100 (#
1&
#1145000000
0&
#1150000000
b1 &"
b0xx %"
1.
bz1z100 *
bz1z100 _"
1v"
b1101 (#
1&
#1155000000
0&
#1160000000
b11z1 j"
b11z1 ^"
1"
b1101 0
0.
b0 )#
bz1101 +
bz1101 `"
b1101 r"
bz1z000 *
bz1z000 _"
0v"
b1110 (#
1&
#1165000000
0&
#1170000000
b0 &"
b1x %"
1.
bz1z100 *
bz1z100 _"
1v"
b1111 (#
1&
#1175000000
0&
#1180000000
b11z0 j"
b11z0 ^"
0"
b1100 0
0.
bz1100 +
bz1100 `"
b1100 r"
bz1z000 *
bz1z000 _"
0v"
b10000 (#
1&
#1185000000
0&
#1190000000
b1000000010 b
1Y
b10 c
b11111111111111111111111111111111 &"
b10 %"
1.
bz1z100 *
bz1z100 _"
1v"
b10001 (#
1&
#1195000000
0&
#1200000000
b11zz j"
b11zz ^"
z"
b11 /
0.
bz0011 ,
bz0011 a"
b11 s"
bz1z000 *
bz1z000 _"
0v"
b0 (#
1&
#1205000000
0&
#1210000000
18
05
b1 A"
b0 B"
b1111101000 @"
b1000000011 a
12
bz1z010 *
bz1z010 _"
1l"
b1011 *#
1&
#1211000000
0Y
b1000000000 a
b0 A"
b0 B"
#1215000000
0&
#1220000000
b111 |
1P
02
b1 (#
b11101011 )#
bz1z000 *
bz1z000 _"
0l"
b1100 *#
1&
#1220001000
16
#1225000000
0&
#1230000000
b11z1 j"
b11z1 ^"
1"
b1101 0
b10 /
b11010110 )#
bz1101 +
bz1101 `"
b1101 r"
bz0010 ,
bz0010 a"
b10 s"
b10 (#
1&
#1235000000
0&
#1240000000
b110 |
b10000010 {
1.
bz1z100 *
bz1z100 _"
1v"
b11 (#
1&
#1245000000
0&
#1250000000
0.
b10101100 )#
bz1z000 *
bz1z000 _"
0v"
b100 (#
1&
#1255000000
0&
#1260000000
b101 |
b11000010 {
1.
bz1z100 *
bz1z100 _"
1v"
b101 (#
1&
#1265000000
0&
#1270000000
0.
b1011000 )#
bz1z000 *
bz1z000 _"
0v"
b110 (#
1&
#1275000000
0&
#1280000000
b100 |
b11100010 {
1.
bz1z100 *
bz1z100 _"
1v"
b111 (#
1&
#1285000000
0&
#1290000000
b11z0 j"
b11z0 ^"
0"
b1100 0
0.
b10110000 )#
bz1100 +
bz1100 `"
b1100 r"
bz1z000 *
bz1z000 _"
0v"
b1000 (#
1&
#1295000000
0&
#1300000000
b11 |
1.
bz1z100 *
bz1z100 _"
1v"
b1001 (#
1&
#1305000000
0&
#1310000000
b11z1 j"
b11z1 ^"
1"
b1101 0
0.
b1100000 )#
bz1101 +
bz1101 `"
b1101 r"
bz1z000 *
bz1z000 _"
0v"
b1010 (#
1&
