src/tb.vcd
$date
	Thu May 25 18:01:12 2023
$end
$version
	Icarus Verilog
$end
$timescale
	1ps
$end
$scope module tb $end
$var wire 4 ! EF [3:0] $end
$var wire 1 " IO0 $end
$var wire 1 # IO1 $end
$var wire 1 $ IO2 $end
$var wire 1 % IO3 $end
$var wire 1 & clk $end
$var wire 1 ' intr $end
$var wire 1 ( rst_n $end
$var wire 8 ) uo_out [7:0] $end
$var wire 8 * uio_out [7:0] $end
$var wire 8 + uio_oe [7:0] $end
$var wire 1 , SCLK $end
$var wire 4 - QSPI_OEB [3:0] $end
$var wire 4 . QSPI_DO [3:0] $end
$var wire 1 / Q $end
$var wire 1 0 CS_ROM $end
$scope module W25Q128JVxIM $end
$var wire 1 , CLK $end
$var wire 1 0 CSn $end
$var wire 1 " DIO $end
$var wire 1 1 DIO_Output_Enable $end
$var wire 1 # DO $end
$var wire 1 % HOLDn $end
$var wire 1 $ WPn $end
$var wire 1 2 WPn_Output_Enable $end
$var wire 1 3 flag_quad_mode_cs $end
$var wire 1 4 flag_read_op $end
$var wire 1 5 flag_slow_read $end
$var wire 1 6 flag_quad_mode $end
$var reg 1 7 DIO_Output_Enable_reg $end
$var reg 1 8 DIO_Reg $end
$var reg 1 9 DO_Output_Enable $end
$var reg 1 : DO_Reg $end
$var reg 1 ; HOLDn_Active $end
$var reg 1 < HOLDn_Output_Enable $end
$var reg 1 = HOLDn_Reg $end
$var reg 1 > WPn_Output_Enable_reg $end
$var reg 1 ? WPn_Reg $end
$var reg 24 @ byte_address [23:0] $end
$var reg 8 A cmd_byte [7:0] $end
$var reg 1 B flag_enable_reset $end
$var reg 1 C flag_erase_block $end
$var reg 1 D flag_erase_bulk $end
$var reg 1 E flag_erase_half_block $end
$var reg 1 F flag_erase_secsi_sector $end
$var reg 1 G flag_erase_sector $end
$var reg 1 H flag_power_down $end
$var reg 1 I flag_power_up_exec $end
$var reg 1 J flag_power_up_sig_read $end
$var reg 1 K flag_prog_page $end
$var reg 1 L flag_prog_secsi_page $end
$var reg 1 M flag_qpi_mode $end
$var reg 1 N flag_read_op_reg $end
$var reg 1 O flag_reset $end
$var reg 1 P flag_reset_condition $end
$var reg 1 Q flag_resume $end
$var reg 1 R flag_set_read_param $end
$var reg 1 S flag_slow_read_reg $end
$var reg 1 T flag_suspend $end
$var reg 1 U flag_suspend_enabled $end
$var reg 1 V flag_volatile_sr_write $end
$var reg 1 W flag_write_status_reg $end
$var reg 8 X in_byte [7:0] $end
$var reg 8 Y mode_reg [7:0] $end
$var reg 8 Z null_reg [7:0] $end
$var reg 8 [ out_byte [7:0] $end
$var reg 24 \ prog_byte_address [23:0] $end
$var reg 8 ] read_param_reg [7:0] $end
$var reg 8 ^ read_param_reg_shadow [7:0] $end
$var reg 24 _ status_reg [23:0] $end
$var reg 24 ` status_reg_shadow [23:0] $end
$var reg 8 a temp [7:0] $end
$var reg 1 b temp_DIO_Output_Enable_reg $end
$var reg 1 c temp_DO_Output_Enable $end
$var reg 1 d timing_error $end
$var reg 8 e wrap_reg [7:0] $end
$var integer 32 f x [31:0] $end
$scope function is_qpi $end
$var reg 8 g cmd_byte [7:0] $end
$upscope $end
$scope function lockbit_index $end
$var reg 24 h byte_address [23:0] $end
$upscope $end
$scope function write_protected $end
$var reg 24 i byte_address [23:0] $end
$upscope $end
$scope begin disable_interface $end
$upscope $end
$scope begin erase_block $end
$var integer 32 j x [31:0] $end
$upscope $end
$scope begin erase_bulk $end
$var integer 32 k x [31:0] $end
$upscope $end
$scope begin erase_half_block $end
$var integer 32 l x [31:0] $end
$upscope $end
$scope begin erase_resume $end
$upscope $end
$scope begin erase_secsi_sector $end
$var integer 32 m x [31:0] $end
$upscope $end
$scope begin erase_sector $end
$var integer 32 n x [31:0] $end
$upscope $end
$scope begin erase_suspend $end
$upscope $end
$scope begin initialization $end
$upscope $end
$scope begin power_down $end
$upscope $end
$scope begin power_up $end
$upscope $end
$scope begin program_to_page $end
$var integer 32 o x [31:0] $end
$upscope $end
$scope begin program_to_secsi_page $end
$var integer 32 p x [31:0] $end
$upscope $end
$scope begin read_opcode $end
$upscope $end
$scope begin reset $end
$upscope $end
$scope begin set_read_param $end
$upscope $end
$scope begin write_status_reg $end
$upscope $end
$scope task chip_reset $end
$var integer 32 q x [31:0] $end
$upscope $end
$scope task dump_mem $end
$var integer 32 r file [31:0] $end
$var integer 32 s x [31:0] $end
$upscope $end
$scope task fill_page_latch $end
$var reg 1 t flag_secsi $end
$var reg 24 u prog_address [23:0] $end
$var reg 1 v quadio $end
$var integer 32 w address [31:0] $end
$var integer 32 x x [31:0] $end
$upscope $end
$scope task get_negclk_holdn $end
$upscope $end
$scope task get_posclk_holdn $end
$upscope $end
$scope task input_byte $end
$var reg 8 y input_data [7:0] $end
$var integer 32 z x [31:0] $end
$upscope $end
$scope task input_byte_DTR $end
$var reg 8 { input_data [7:0] $end
$var integer 32 | x [31:0] $end
$upscope $end
$scope task input_byte_dual $end
$var reg 8 } input_data [7:0] $end
$var integer 32 ~ x [31:0] $end
$upscope $end
$scope task input_byte_dual_DTR $end
$var reg 8 !" input_data [7:0] $end
$var integer 32 "" x [31:0] $end
$upscope $end
$scope task input_byte_no1stclock $end
$var reg 8 #" input_data [7:0] $end
$var integer 32 $" x [31:0] $end
$upscope $end
$scope task input_byte_quad $end
$var reg 8 %" input_data [7:0] $end
$var integer 32 &" x [31:0] $end
$upscope $end
$scope task input_byte_quad_DTR $end
$var reg 8 '" input_data [7:0] $end
$var integer 32 (" x [31:0] $end
$upscope $end
$scope task input_byte_quad_no1stclock $end
$var reg 8 )" input_data [7:0] $end
$var integer 32 *" x [31:0] $end
$upscope $end
$scope task input_mode_dual $end
$var reg 6 +" input_data [5:0] $end
$var integer 32 ," x [31:0] $end
$upscope $end
$scope task output_byte $end
$var reg 8 -" output_data [7:0] $end
$var integer 32 ." x [31:0] $end
$upscope $end
$scope task output_byte_DTR $end
$var reg 8 /" output_data [7:0] $end
$var integer 32 0" x [31:0] $end
$upscope $end
$scope task output_byte_dual $end
$var reg 8 1" output_data [7:0] $end
$var integer 32 2" x [31:0] $end
$upscope $end
$scope task output_byte_dual_DTR $end
$var reg 8 3" output_data [7:0] $end
$var integer 32 4" x [31:0] $end
$upscope $end
$scope task output_byte_quad $end
$var reg 8 5" output_data [7:0] $end
$var integer 32 6" x [31:0] $end
$upscope $end
$scope task output_byte_quad_DTR $end
$var reg 8 7" output_data [7:0] $end
$var integer 32 8" x [31:0] $end
$upscope $end
$scope task read_page $end
$var reg 2 9" fast_read [1:0] $end
$var reg 2 :" mem_read [1:0] $end
$var integer 32 ;" x [31:0] $end
$upscope $end
$scope task read_page_dualio $end
$upscope $end
$scope task read_page_quadio $end
$var reg 8 <" cmd [7:0] $end
$var integer 32 =" x [31:0] $end
$upscope $end
$scope task wait_reset $end
$var reg 32 >" delay [31:0] $end
$var integer 32 ?" num_iterations [31:0] $end
$var integer 32 @" waitx [31:0] $end
$upscope $end
$scope task wait_reset_suspend $end
$var reg 32 A" delay [31:0] $end
$var integer 32 B" num_iterations [31:0] $end
$var integer 32 C" waitx [31:0] $end
$upscope $end
$scope task write_page $end
$var reg 1 D" quadio $end
$upscope $end
$upscope $end
$scope module as1802 $end
$var wire 16 E" PC [15:0] $end
$var wire 16 F" SP [15:0] $end
$var wire 1 & clk $end
$var wire 1 G" ena $end
$var wire 1 H" is_skip $end
$var wire 16 I" r0 [15:0] $end
$var wire 16 J" r1 [15:0] $end
$var wire 16 K" r10 [15:0] $end
$var wire 16 L" r11 [15:0] $end
$var wire 16 M" r12 [15:0] $end
$var wire 16 N" r13 [15:0] $end
$var wire 16 O" r14 [15:0] $end
$var wire 16 P" r15 [15:0] $end
$var wire 16 Q" r2 [15:0] $end
$var wire 16 R" r3 [15:0] $end
$var wire 16 S" r4 [15:0] $end
$var wire 16 T" r5 [15:0] $end
$var wire 16 U" r6 [15:0] $end
$var wire 16 V" r7 [15:0] $end
$var wire 16 W" r8 [15:0] $end
$var wire 16 X" r9 [15:0] $end
$var wire 1 ( rst_n $end
$var wire 16 Y" sel_reg [15:0] $end
$var wire 1 Z" should_branch $end
$var wire 8 [" ui_in [7:0] $end
$var wire 8 \" uio_in [7:0] $end
$var wire 8 ]" uo_out [7:0] $end
$var wire 8 ^" uio_out [7:0] $end
$var wire 8 _" uio_oe [7:0] $end
$var wire 4 `" op_high [3:0] $end
$var wire 4 a" ireg_addr [3:0] $end
$var wire 1 b" intr $end
$var wire 1 c" flag_init_done $end
$var wire 1 d" cond_inv $end
$var wire 4 e" QSPI_DAT [3:0] $end
$var reg 8 f" B [7:0] $end
$var reg 1 g" CS_ROM $end
$var reg 8 h" D [7:0] $end
$var reg 1 i" DF $end
$var reg 4 j" EF_l [3:0] $end
$var reg 1 k" IE $end
$var reg 4 l" P [3:0] $end
$var reg 4 m" QSPI_DO [3:0] $end
$var reg 4 n" QSPI_OEB [3:0] $end
$var reg 1 o" Q_l $end
$var reg 2 p" S [1:0] $end
$var reg 1 q" SCLK $end
$var reg 8 r" T [7:0] $end
$var reg 4 s" X [3:0] $end
$var reg 16 t" addr_buff [15:0] $end
$var reg 1 u" branch_condition $end
$var reg 8 v" data_in [7:0] $end
$var reg 1 w" idle $end
$var reg 4 x" instr_cycle [3:0] $end
$var reg 8 y" instr_latch [7:0] $end
$var reg 16 z" last_addr [15:0] $end
$var reg 1 {" lda $end
$var reg 1 |" longbranch_condition $end
$var reg 5 }" mem_cycle [4:0] $end
$var reg 1 ~" mem_write $end
$var reg 1 !# mrd_l $end
$var reg 1 "# mwr_l $end
$var reg 5 ## spi_cycle [4:0] $end
$var reg 8 $# spi_dat_out [7:0] $end
$var reg 6 %# startup_cycle [5:0] $end
$var reg 1 &# tpa_l $end
$var reg 1 '# will_interrupt $end
$upscope $end
$upscope $end
$enddefinitions $end
#0
$dumpvars
0'#
0&#
b1 %#
bx $#
b0 ##
1"#
1!#
x~"
b0 }"
x|"
x{"
b11111111 z"
bx y"
b0 x"
0w"
bx v"
xu"
bx t"
b0 s"
b0 r"
0q"
bx p"
0o"
b1111 n"
b0 m"
b0 l"
1k"
bx j"
0i"
b0 h"
1g"
bx f"
bz e"
xd"
0c"
0b"
bx a"
bx `"
bz1111 _"
bz0000 ^"
bz010 ]"
b0zzzz \"
b0zzzz ["
xZ"
bx Y"
bx X"
bx W"
bx V"
bx U"
bx T"
bx S"
bx R"
bx Q"
bx P"
bx O"
bx N"
bx M"
bx L"
bx K"
bx J"
b0 I"
xH"
1G"
b0 F"
b0 E"
xD"
bx C"
bx B"
bx A"
bx @"
bx ?"
bx >"
bx ="
bx <"
bx ;"
bx :"
bx 9"
bx 8"
bx 7"
bx 6"
bx 5"
bx 4"
bx 3"
bx 2"
bx 1"
bx 0"
bx /"
bx ."
bx -"
bx ,"
bx +"
bx *"
bx )"
bx ("
bx '"
bx &"
bx %"
bx $"
bx #"
bx ""
bx !"
bx ~
bx }
bx |
bx {
bx z
bx y
bx x
bx w
xv
bx u
xt
bx s
bx r
b100011110 q
bx p
bx o
bx n
bx m
bx l
bx k
bx j
bx i
bx h
bx g
bx f
b10000 e
0d
0c
0b
bx a
bx `
b0 _
bx ^
b0 ]
bx \
b0 [
b0 Z
b0 Y
b0 X
0W
0V
0U
0T
0S
0R
xQ
0P
0O
0N
0M
0L
0K
0J
0I
0H
0G
0F
0E
0D
0C
0B
b0 A
bx @
0?
0>
0=
0<
0;
0:
09
08
07
06
05
x4
03
02
01
10
0/
b0 .
b1111 -
0,
bz1111 +
bz0000 *
bz010 )
0(
0'
1&
z%
z$
z#
z"
bz !
$end
#1000
04
#5000000
0&
#10000000
1&
#15000000
0&
#20000000
1&
#25000000
0&
#30000000
1&
#35000000
0&
#40000000
1&
#45000000
0&
#50000000
1&
#55000000
0&
#60000000
1&
#65000000
0&
#70000000
1&
#75000000
0&
#80000000
1&
#85000000
0&
#90000000
1(
1&
#95000000
0&
#100000000
b111 z
1N
13
00
b1 ##
b11111111 $#
bz000 )
bz000 ]"
0g"
b10 %#
b11zz e"
1$
b11zz \"
1%
b1100 .
b11 -
bz1100 *
bz1100 ^"
b1100 m"
bz0011 +
bz0011 _"
b11 n"
1&
#100001000
14
#105000000
0&
#110000000
b11z1 e"
b11z1 \"
1"
b1101 .
b10 -
b11111110 $#
bz1101 *
bz1101 ^"
b1101 m"
bz0010 +
bz0010 _"
b10 n"
b10 ##
1&
#115000000
0&
#120000000
b110 z
b1xxxxxxx y
1,
bz100 )
bz100 ]"
1q"
b11 ##
1&
#125000000
0&
#130000000
0,
b11111100 $#
bz000 )
bz000 ]"
0q"
b100 ##
1&
#135000000
0&
#140000000
b101 z
b11xxxxxx y
1,
bz100 )
bz100 ]"
1q"
b101 ##
1&
#145000000
0&
#150000000
0,
b11111000 $#
bz000 )
bz000 ]"
0q"
b110 ##
1&
#155000000
0&
#160000000
b100 z
b111xxxxx y
1,
bz100 )
bz100 ]"
1q"
b111 ##
1&
#165000000
0&
#170000000
0,
b11110000 $#
bz000 )
bz000 ]"
0q"
b1000 ##
1&
#175000000
0&
#180000000
b11 z
b1111xxxx y
1,
bz100 )
bz100 ]"
1q"
b1001 ##
1&
#185000000
0&
#190000000
0,
b11100000 $#
bz000 )
bz000 ]"
0q"
b1010 ##
1&
#195000000
0&
#200000000
b10 z
b11111xxx y
1,
bz100 )
bz100 ]"
1q"
b1011 ##
1&
#205000000
0&
#210000000
0,
b11000000 $#
bz000 )
bz000 ]"
0q"
b1100 ##
1&
#215000000
0&
#220000000
b1 z
b111111xx y
1,
bz100 )
bz100 ]"
1q"
b1101 ##
1&
#225000000
0&
#230000000
0,
b10000000 $#
bz000 )
bz000 ]"
0q"
b1110 ##
1&
#235000000
0&
#240000000
b0 z
b1111111x y
1,
bz100 )
bz100 ]"
1q"
b1111 ##
1&
#245000000
0&
#250000000
0,
b0 $#
bz000 )
bz000 ]"
0q"
b10000 ##
1&
#255000000
0&
#260000000
b11111111 g
b11111111 A
b11111111 X
b11111111111111111111111111111111 z
b11111111 y
1,
bz100 )
bz100 ]"
1q"
b10001 ##
1&
#265000000
0&
#270000000
b11zz e"
b11zz \"
z"
b1100 .
b11 -
0,
bz1100 *
bz1100 ^"
b1100 m"
bz0011 +
bz0011 _"
b11 n"
bz000 )
bz000 ]"
0q"
b0 ##
1&
#275000000
0&
#280000000
03
10
bz010 )
bz010 ]"
1g"
b11 %#
1&
#285000000
0&
#290000000
b111 z
13
00
b1 ##
b10101011 $#
bz000 )
bz000 ]"
0g"
b100 %#
1&
#295000000
0&
#300000000
b11z1 e"
b11z1 \"
1"
b1101 .
b10 -
b1010110 $#
bz1101 *
bz1101 ^"
b1101 m"
bz0010 +
bz0010 _"
b10 n"
b10 ##
1&
#305000000
0&
#310000000
b110 z
1,
bz100 )
bz100 ]"
1q"
b11 ##
1&
#315000000
0&
#320000000
b11z0 e"
b11z0 \"
0"
b1100 .
0,
b10101100 $#
bz1100 *
bz1100 ^"
b1100 m"
bz000 )
bz000 ]"
0q"
b100 ##
1&
#325000000
0&
#330000000
b101 z
b10111111 y
1,
bz100 )
bz100 ]"
1q"
b101 ##
1&
#335000000
0&
#340000000
b11z1 e"
b11z1 \"
1"
b1101 .
0,
b1011000 $#
bz1101 *
bz1101 ^"
b1101 m"
bz000 )
bz000 ]"
0q"
b110 ##
1&
#345000000
0&
#350000000
b100 z
1,
bz100 )
bz100 ]"
1q"
b111 ##
1&
#355000000
0&
#360000000
b11z0 e"
b11z0 \"
0"
b1100 .
0,
b10110000 $#
bz1100 *
bz1100 ^"
b1100 m"
bz000 )
bz000 ]"
0q"
b1000 ##
1&
#365000000
0&
#370000000
b11 z
b10101111 y
1,
bz100 )
bz100 ]"
1q"
b1001 ##
1&
#375000000
0&
#380000000
b11z1 e"
b11z1 \"
1"
b1101 .
0,
b1100000 $#
bz1101 *
bz1101 ^"
b1101 m"
bz000 )
bz000 ]"
0q"
b1010 ##
1&
#385000000
0&
#390000000
b10 z
1,
bz100 )
bz100 ]"
1q"
b1011 ##
1&
#395000000
0&
#400000000
b11z0 e"
b11z0 \"
0"
b1100 .
0,
b11000000 $#
bz1100 *
bz1100 ^"
b1100 m"
bz000 )
bz000 ]"
0q"
b1100 ##
1&
#405000000
0&
#410000000
b1 z
b10101011 y
1,
bz100 )
bz100 ]"
1q"
b1101 ##
1&
#415000000
0&
#420000000
b11z1 e"
b11z1 \"
1"
b1101 .
0,
b10000000 $#
bz1101 *
bz1101 ^"
b1101 m"
bz000 )
bz000 ]"
0q"
b1110 ##
1&
#425000000
0&
#430000000
b0 z
1,
bz100 )
bz100 ]"
1q"
b1111 ##
1&
#435000000
0&
#440000000
0,
b0 $#
bz000 )
bz000 ]"
0q"
b10000 ##
1&
#445000000
0&
#450000000
1I
b10101011 g
b10101011 A
b10101011 X
b111 z
1,
bz100 )
bz100 ]"
1q"
b10001 ##
1&
#455000000
0&
#460000000
b11zz e"
b11zz \"
z"
b1100 .
b11 -
0,
bz1100 *
bz1100 ^"
b1100 m"
bz0011 +
bz0011 _"
b11 n"
bz000 )
bz000 ]"
0q"
b0 ##
1&
#465000000
0&
#470000000
03
10
bz010 )
bz010 ]"
1g"
b101 %#
1&
#475000000
0&
#480000000
13
00
b1 ##
b110 $#
bz000 )
bz000 ]"
0g"
b110 %#
1&
#485000000
0&
#490000000
b11z0 e"
b11z0 \"
0"
b10 -
b1100 $#
bz0010 +
bz0010 _"
b10 n"
b10 ##
1&
#495000000
0&
#500000000
b110 z
b101011 y
1,
bz100 )
bz100 ]"
1q"
b11 ##
1&
0I
#505000000
0&
#510000000
0,
b11000 $#
bz000 )
bz000 ]"
0q"
b100 ##
1&
#515000000
0&
#520000000
b101 z
1,
bz100 )
bz100 ]"
1q"
b101 ##
1&
#525000000
0&
#530000000
0,
b110000 $#
bz000 )
bz000 ]"
0q"
b110 ##
1&
#535000000
0&
#540000000
b100 z
b1011 y
1,
bz100 )
bz100 ]"
1q"
b111 ##
1&
#545000000
0&
#550000000
0,
b1100000 $#
bz000 )
bz000 ]"
0q"
b1000 ##
1&
#555000000
0&
#560000000
b11 z
1,
bz100 )
bz100 ]"
1q"
b1001 ##
1&
#565000000
0&
#570000000
0,
b11000000 $#
bz000 )
bz000 ]"
0q"
b1010 ##
1&
#575000000
0&
#580000000
b10 z
b11 y
1,
bz100 )
bz100 ]"
1q"
b1011 ##
1&
#585000000
0&
#590000000
b11z1 e"
b11z1 \"
1"
b1101 .
0,
b10000000 $#
bz1101 *
bz1101 ^"
b1101 m"
bz000 )
bz000 ]"
0q"
b1100 ##
1&
#595000000
0&
#600000000
b1 z
b111 y
1,
bz100 )
bz100 ]"
1q"
b1101 ##
1&
#605000000
0&
#610000000
0,
b0 $#
bz000 )
bz000 ]"
0q"
b1110 ##
1&
#615000000
0&
#620000000
b0 z
1,
bz100 )
bz100 ]"
1q"
b1111 ##
1&
#625000000
0&
#630000000
b11z0 e"
b11z0 \"
0"
b1100 .
0,
bz1100 *
bz1100 ^"
b1100 m"
bz000 )
bz000 ]"
0q"
b10000 ##
1&
#635000000
0&
#640000000
b10 _
b110 g
b110 A
b110 X
b11111111111111111111111111111111 z
b110 y
1,
bz100 )
bz100 ]"
1q"
b10001 ##
1&
#645000000
0&
#650000000
b11zz e"
b11zz \"
z"
b11 -
0,
bz0011 +
bz0011 _"
b11 n"
bz000 )
bz000 ]"
0q"
b0 ##
1&
#655000000
0&
#660000000
03
10
bz010 )
bz010 ]"
1g"
b111 %#
1&
#665000000
0&
#670000000
b111 z
13
00
b1 ##
b1 $#
bz000 )
bz000 ]"
0g"
b1000 %#
1&
#675000000
0&
#680000000
b11z0 e"
b11z0 \"
0"
b10 -
b10 $#
bz0010 +
bz0010 _"
b10 n"
b10 ##
1&
#685000000
0&
#690000000
b110 z
1,
bz100 )
bz100 ]"
1q"
b11 ##
1&
#695000000
0&
#700000000
0,
b100 $#
bz000 )
bz000 ]"
0q"
b100 ##
1&
#705000000
0&
#710000000
b101 z
1,
bz100 )
bz100 ]"
1q"
b101 ##
1&
#715000000
0&
#720000000
0,
b1000 $#
bz000 )
bz000 ]"
0q"
b110 ##
1&
#725000000
0&
#730000000
b100 z
1,
bz100 )
bz100 ]"
1q"
b111 ##
1&
#735000000
0&
#740000000
0,
b10000 $#
bz000 )
bz000 ]"
0q"
b1000 ##
1&
#745000000
0&
#750000000
b11 z
1,
bz100 )
bz100 ]"
1q"
b1001 ##
1&
#755000000
0&
#760000000
0,
b100000 $#
bz000 )
bz000 ]"
0q"
b1010 ##
1&
#765000000
0&
#770000000
b10 z
1,
bz100 )
bz100 ]"
1q"
b1011 ##
1&
#775000000
0&
#780000000
0,
b1000000 $#
bz000 )
bz000 ]"
0q"
b1100 ##
1&
#785000000
0&
#790000000
b1 z
b10 y
1,
bz100 )
bz100 ]"
1q"
b1101 ##
1&
#795000000
0&
#800000000
0,
b10000000 $#
bz000 )
bz000 ]"
0q"
b1110 ##
1&
#805000000
0&
#810000000
b0 z
b0 y
1,
bz100 )
bz100 ]"
1q"
b1111 ##
1&
#815000000
0&
#820000000
b11z1 e"
b11z1 \"
1"
b1101 .
0,
b0 $#
bz1101 *
bz1101 ^"
b1101 m"
bz000 )
bz000 ]"
0q"
b10000 ##
1&
#825000000
0&
#830000000
b0xxxxxxxx `
0N
b1 g
b1 A
b1 X
b111 z
b1 y
1,
bz100 )
bz100 ]"
1q"
b10001 ##
1&
#830001000
04
#835000000
0&
#840000000
b11zz e"
b11zz \"
z"
b1100 .
b11 -
0,
bz1100 *
bz1100 ^"
b1100 m"
bz0011 +
bz0011 _"
b11 n"
bz000 )
bz000 ]"
0q"
b0 ##
1&
#845000000
0&
#850000000
b1 ##
b10 $#
b1001 %#
1&
#855000000
0&
#860000000
b11z0 e"
b11z0 \"
0"
b10 -
b100 $#
bz0010 +
bz0010 _"
b10 n"
b10 ##
1&
#865000000
0&
#870000000
b110 z
1,
bz100 )
bz100 ]"
1q"
b11 ##
1&
#875000000
0&
#880000000
0,
b1000 $#
bz000 )
bz000 ]"
0q"
b100 ##
1&
#885000000
0&
#890000000
b101 z
1,
bz100 )
bz100 ]"
1q"
b101 ##
1&
#895000000
0&
#900000000
0,
b10000 $#
bz000 )
bz000 ]"
0q"
b110 ##
1&
#905000000
0&
#910000000
b100 z
1,
bz100 )
bz100 ]"
1q"
b111 ##
1&
#915000000
0&
#920000000
0,
b100000 $#
bz000 )
bz000 ]"
0q"
b1000 ##
1&
#925000000
0&
#930000000
b11 z
1,
bz100 )
bz100 ]"
1q"
b1001 ##
1&
#935000000
0&
#940000000
0,
b1000000 $#
bz000 )
bz000 ]"
0q"
b1010 ##
1&
#945000000
0&
#950000000
b10 z
1,
bz100 )
bz100 ]"
1q"
b1011 ##
1&
#955000000
0&
#960000000
0,
b10000000 $#
bz000 )
bz000 ]"
0q"
b1100 ##
1&
#965000000
0&
#970000000
b1 z
1,
bz100 )
bz100 ]"
1q"
b1101 ##
1&
#975000000
0&
#980000000
b11z1 e"
b11z1 \"
1"
b1101 .
0,
b0 $#
bz1101 *
bz1101 ^"
b1101 m"
bz000 )
bz000 ]"
0q"
b1110 ##
1&
#985000000
0&
#990000000
b0 z
b11 y
1,
bz100 )
bz100 ]"
1q"
b1111 ##
1&
#995000000
0&
#1000000000
b11z0 e"
b11z0 \"
0"
b1100 .
0,
bz1100 *
bz1100 ^"
b1100 m"
bz000 )
bz000 ]"
0q"
b10000 ##
1&
#1005000000
0&
#1010000000
1W
b10 `
b10 X
b11111111111111111111111111111111 z
b10 y
1,
bz100 )
bz100 ]"
1q"
b10001 ##
1&
#1015000000
0&
#1020000000
b11zz e"
b11zz \"
z"
b11 -
0,
bz0011 +
bz0011 _"
b11 n"
bz000 )
bz000 ]"
0q"
b0 ##
1&
#1025000000
0&
#1030000000
b1 ##
b10 $#
b1010 %#
1&
#1035000000
0&
#1040000000
b11z0 e"
b11z0 \"
0"
b10 -
b100 $#
bz0010 +
bz0010 _"
b10 n"
b10 ##
1&
#1045000000
0&
#1050000000
b0xxxxxxx #"
b110 $"
0W
1,
bz100 )
bz100 ]"
1q"
b11 ##
1&
#1055000000
0&
#1060000000
0,
b1000 $#
bz000 )
bz000 ]"
0q"
b100 ##
1&
#1065000000
0&
#1070000000
b101 $"
b0xxxxxx #"
1,
bz100 )
bz100 ]"
1q"
b101 ##
1&
#1075000000
0&
#1080000000
0,
b10000 $#
bz000 )
bz000 ]"
0q"
b110 ##
1&
#1085000000
0&
#1090000000
b100 $"
b0xxxxx #"
1,
bz100 )
bz100 ]"
1q"
b111 ##
1&
#1095000000
0&
#1100000000
0,
b100000 $#
bz000 )
bz000 ]"
0q"
b1000 ##
1&
#1105000000
0&
#1110000000
b11 $"
b0xxxx #"
1,
bz100 )
bz100 ]"
1q"
b1001 ##
1&
#1115000000
0&
#1120000000
0,
b1000000 $#
bz000 )
bz000 ]"
0q"
b1010 ##
1&
#1125000000
0&
#1130000000
b10 $"
b0xxx #"
1,
bz100 )
bz100 ]"
1q"
b1011 ##
1&
#1135000000
0&
#1140000000
0,
b10000000 $#
bz000 )
bz000 ]"
0q"
b1100 ##
1&
#1145000000
0&
#1150000000
b1 $"
b0xx #"
1,
bz100 )
bz100 ]"
1q"
b1101 ##
1&
#1155000000
0&
#1160000000
b11z1 e"
b11z1 \"
1"
b1101 .
0,
b0 $#
bz1101 *
bz1101 ^"
b1101 m"
bz000 )
bz000 ]"
0q"
b1110 ##
1&
#1165000000
0&
#1170000000
b0 $"
b1x #"
1,
bz100 )
bz100 ]"
1q"
b1111 ##
1&
#1175000000
0&
#1180000000
b11z0 e"
b11z0 \"
0"
b1100 .
0,
bz1100 *
bz1100 ^"
b1100 m"
bz000 )
bz000 ]"
0q"
b10000 ##
1&
#1185000000
0&
#1190000000
b1000000010 `
1W
b10 a
b11111111111111111111111111111111 $"
b10 #"
1,
bz100 )
bz100 ]"
1q"
b10001 ##
1&
#1195000000
0&
#1200000000
b11zz e"
b11zz \"
z"
b11 -
0,
bz0011 +
bz0011 _"
b11 n"
bz000 )
bz000 ]"
0q"
b0 ##
1&
#1205000000
0&
#1210000000
16
03
b1 ?"
b0 @"
b1111101000 >"
b1000000011 _
10
bz010 )
bz010 ]"
1g"
b1011 %#
1&
#1211000000
0W
b1000000000 _
b0 ?"
b0 @"
#1215000000
0&
#1220000000
b111 z
1N
00
b1 ##
b11101011 $#
bz000 )
bz000 ]"
0g"
b1100 %#
1&
#1220001000
14
#1225000000
0&
#1230000000
b11z1 e"
b11z1 \"
1"
b1101 .
b10 -
b11010110 $#
bz1101 *
bz1101 ^"
b1101 m"
bz0010 +
bz0010 _"
b10 n"
b10 ##
1&
#1235000000
0&
#1240000000
b110 z
b10000010 y
1,
bz100 )
bz100 ]"
1q"
b11 ##
1&
#1245000000
0&
#1250000000
0,
b10101100 $#
bz000 )
bz000 ]"
0q"
b100 ##
1&
#1255000000
0&
#1260000000
b101 z
b11000010 y
1,
bz100 )
bz100 ]"
1q"
b101 ##
1&
#1265000000
0&
#1270000000
0,
b1011000 $#
bz000 )
bz000 ]"
0q"
b110 ##
1&
#1275000000
0&
#1280000000
b100 z
b11100010 y
1,
bz100 )
bz100 ]"
1q"
b111 ##
1&
#1285000000
0&
#1290000000
b11z0 e"
b11z0 \"
0"
b1100 .
0,
b10110000 $#
bz1100 *
bz1100 ^"
b1100 m"
bz000 )
bz000 ]"
0q"
b1000 ##
1&
#1295000000
0&
#1300000000
b11 z
1,
bz100 )
bz100 ]"
1q"
b1001 ##
1&
#1305000000
0&
#1310000000
b11z1 e"
b11z1 \"
1"
b1101 .
0,
b1100000 $#
bz1101 *
bz1101 ^"
b1101 m"
bz000 )
bz000 ]"
0q"
b1010 ##
1&
#1315000000
0&
#1320000000
b10 z
b11101010 y
1,
bz100 )
bz100 ]"
1q"
b1011 ##
1&
#1325000000
0&
#1330000000
b11z0 e"
b11z0 \"
0"
b1100 .
0,
b11000000 $#
bz1100 *
bz1100 ^"
b1100 m"
bz000 )
bz000 ]"
0q"
b1100 ##
1&
#1335000000
0&
#1340000000
b1 z
1,
bz100 )
bz100 ]"
1q"
b1101 ##
1&
#1345000000
0&
#1350000000
b11z1 e"
b11z1 \"
1"
b1101 .
0,
b10000000 $#
bz1101 *
bz1101 ^"
b1101 m"
bz000 )
bz000 ]"
0q"
b1110 ##
1&
#1355000000
0&
#1360000000
b0 z
1,
bz100 )
bz100 ]"
1q"
b1111 ##
1&
#1365000000
0&
#1370000000
0,
b0 $#
bz000 )
bz000 ]"
0q"
b10000 ##
1&
#1375000000
0&
#1380000000
b111 &"
b11101011 <"
b11101011 g
b11101011 A
b11101011 X
b11111111111111111111111111111111 z
b11101011 y
1,
bz100 )
bz100 ]"
1q"
b10001 ##
1&
#1385000000
0&
#1390000000
b11zz e"
b11zz \"
z"
b1100 .
b11 -
0,
bz1100 *
bz1100 ^"
b1100 m"
bz0011 +
bz0011 _"
b11 n"
bz000 )
bz000 ]"
0q"
b0 ##
1&
#1395000000
0&
#1400000000
b0 e"
0$
0%
0"
b0 \"
0#
b0 .
b0 -
bz0000 *
bz0000 ^"
b0 m"
bz0000 +
bz0000 _"
b0 n"
b1101 %#
1&
#1405000000
0&
#1410000000
b11 &"
b0xxxx %"
1,
bz100 )
bz100 ]"
1q"
b1110 %#
1&
#1415000000
0&
#1420000000
0,
bz000 )
bz000 ]"
0q"
b1111 %#
1&
#1425000000
0&
#1430000000
b0xxxxxxxxxxxxxxxx @
b0 X
b111 &"
b0 %"
1,
bz100 )
bz100 ]"
1q"
b10000 %#
1&
#1435000000
0&
#1440000000
0,
bz000 )
bz000 ]"
0q"
b10001 %#
1&
#1445000000
0&
