src/tb.vcd
$date
	Mon May 29 01:19:47 2023
$end
$version
	Icarus Verilog
$end
$timescale
	1ps
$end
$scope module tb $end
$var wire 1 ! DI $end
$var wire 4 " EF [3:0] $end
$var wire 1 # IO0_RAM $end
$var wire 1 $ IO0_ROM $end
$var wire 1 % IO1_RAM $end
$var wire 1 & IO1_ROM $end
$var wire 1 ' IO2_RAM $end
$var wire 1 ( IO2_ROM $end
$var wire 1 ) IO3_RAM $end
$var wire 1 * IO3_ROM $end
$var wire 1 + clk $end
$var wire 1 , intr $end
$var wire 1 - rst_n $end
$var wire 1 . uart_rx $end
$var wire 8 / uo_out [7:0] $end
$var wire 8 0 uio_out [7:0] $end
$var wire 8 1 uio_oe [7:0] $end
$var wire 1 2 uart_tx $end
$var wire 1 3 SCLK_ROM $end
$var wire 1 4 SCLK_RAM $end
$var wire 1 5 SCLK $end
$var wire 4 6 ROM_OEB [3:0] $end
$var wire 4 7 ROM_DO [3:0] $end
$var wire 4 8 RAM_OEB [3:0] $end
$var wire 4 9 RAM_DO [3:0] $end
$var wire 1 : Q $end
$var wire 1 ; DO $end
$var wire 1 < CS_ROM $end
$var wire 1 = CS_RAM $end
$scope module RAM $end
$var wire 1 4 CLK $end
$var wire 1 = CSn $end
$var wire 1 # IO0 $end
$var wire 1 % IO1 $end
$var wire 1 ' IO2 $end
$var wire 1 ) IO3 $end
$var wire 8 > test_val [7:0] $end
$var reg 8 ? CMD [7:0] $end
$var reg 8 @ DIN [7:0] $end
$var reg 8 A DOUT [7:0] $end
$var reg 24 B address [23:0] $end
$var reg 2 C address_step [1:0] $end
$var reg 4 D delay_steps [3:0] $end
$var reg 1 E has_cmd $end
$var reg 4 F out_vals [3:0] $end
$var reg 4 G output_enables [3:0] $end
$var reg 1 H quad_mode $end
$var reg 4 I step_counter [3:0] $end
$upscope $end
$scope module W25Q128JVxIM $end
$var wire 1 3 CLK $end
$var wire 1 < CSn $end
$var wire 1 $ DIO $end
$var wire 1 J DIO_Output_Enable $end
$var wire 1 & DO $end
$var wire 1 * HOLDn $end
$var wire 1 ( WPn $end
$var wire 1 K WPn_Output_Enable $end
$var wire 1 L flag_quad_mode_cs $end
$var wire 1 M flag_read_op $end
$var wire 1 N flag_slow_read $end
$var wire 1 O flag_quad_mode $end
$var parameter 65 P ADDRESS_MASK $end
$var parameter 32 Q BLOCKSIZE $end
$var parameter 8 R DEVICE_ID $end
$var parameter 32 S HALFBLOCKSIZE $end
$var parameter 8 T JEDEC_ID_HI $end
$var parameter 8 U JEDEC_ID_LO $end
$var parameter 8 V MANUFACTURER $end
$var parameter 64 W NUM_BLOCKS $end
$var parameter 66 X NUM_LOCKBITS $end
$var parameter 32 Y NUM_PAGES $end
$var parameter 32 Z NUM_SEC_PAGES $end
$var parameter 32 [ PAGESIZE $end
$var parameter 32 \ SECTORSIZE $end
$var parameter 64 ] UNIQUE_ID $end
$var parameter 32 ^ tBE1 $end
$var parameter 32 _ tBE2 $end
$var parameter 32 ` tCE_40 $end
$var parameter 32 a tCHDX $end
$var parameter 32 b tCHHH $end
$var parameter 32 c tCHHL $end
$var parameter 32 d tCHSH $end
$var parameter 32 e tCHSL $end
$var parameter 32 f tCLH $end
$var parameter 32 g tCLL $end
$var parameter 32 h tCLQV $end
$var parameter 32 i tCRLH $end
$var parameter 32 j tCRLL $end
$var parameter 32 k tCYC $end
$var parameter 32 l tCYCR $end
$var parameter 32 m tDP $end
$var parameter 32 n tDVCH $end
$var parameter 32 o tHHCH $end
$var parameter 32 p tHHQX $end
$var parameter 32 q tHLCH $end
$var parameter 32 r tHLQZ $end
$var parameter 32 s tPP $end
$var parameter 32 t tRES1 $end
$var parameter 32 u tRES2 $end
$var parameter 32 v tReset_Suspend_Max $end
$var parameter 32 w tSE $end
$var parameter 32 x tSHCH $end
$var parameter 32 y tSHQZ $end
$var parameter 32 z tSHSL_R $end
$var parameter 32 { tSHSL_W $end
$var parameter 32 | tSHWL $end
$var parameter 32 } tSLCH $end
$var parameter 32 ~ tSUS $end
$var parameter 32 !" tW $end
$var parameter 32 "" tWHSL $end
$var reg 1 #" DIO_Output_Enable_reg $end
$var reg 1 $" DIO_Reg $end
$var reg 1 %" DO_Output_Enable $end
$var reg 1 &" DO_Reg $end
$var reg 1 '" HOLDn_Active $end
$var reg 1 (" HOLDn_Output_Enable $end
$var reg 1 )" HOLDn_Reg $end
$var reg 1 *" WPn_Output_Enable_reg $end
$var reg 1 +" WPn_Reg $end
$var reg 24 ," byte_address [23:0] $end
$var reg 8 -" cmd_byte [7:0] $end
$var reg 1 ." flag_enable_reset $end
$var reg 1 /" flag_erase_block $end
$var reg 1 0" flag_erase_bulk $end
$var reg 1 1" flag_erase_half_block $end
$var reg 1 2" flag_erase_secsi_sector $end
$var reg 1 3" flag_erase_sector $end
$var reg 1 4" flag_power_down $end
$var reg 1 5" flag_power_up_exec $end
$var reg 1 6" flag_power_up_sig_read $end
$var reg 1 7" flag_prog_page $end
$var reg 1 8" flag_prog_secsi_page $end
$var reg 1 9" flag_qpi_mode $end
$var reg 1 :" flag_read_op_reg $end
$var reg 1 ;" flag_reset $end
$var reg 1 <" flag_reset_condition $end
$var reg 1 =" flag_resume $end
$var reg 1 >" flag_set_read_param $end
$var reg 1 ?" flag_slow_read_reg $end
$var reg 1 @" flag_suspend $end
$var reg 1 A" flag_suspend_enabled $end
$var reg 1 B" flag_volatile_sr_write $end
$var reg 1 C" flag_write_status_reg $end
$var reg 8 D" in_byte [7:0] $end
$var reg 8 E" mode_reg [7:0] $end
$var reg 8 F" null_reg [7:0] $end
$var reg 8 G" out_byte [7:0] $end
$var reg 24 H" prog_byte_address [23:0] $end
$var reg 8 I" read_param_reg [7:0] $end
$var reg 8 J" read_param_reg_shadow [7:0] $end
$var reg 24 K" status_reg [23:0] $end
$var reg 24 L" status_reg_shadow [23:0] $end
$var reg 8 M" temp [7:0] $end
$var reg 1 N" temp_DIO_Output_Enable_reg $end
$var reg 1 O" temp_DO_Output_Enable $end
$var reg 1 P" timing_error $end
$var reg 8 Q" wrap_reg [7:0] $end
$var integer 32 R" x [31:0] $end
$scope function is_qpi $end
$var reg 8 S" cmd_byte [7:0] $end
$upscope $end
$scope function lockbit_index $end
$var reg 24 T" byte_address [23:0] $end
$upscope $end
$scope function write_protected $end
$var reg 24 U" byte_address [23:0] $end
$upscope $end
$scope begin disable_interface $end
$upscope $end
$scope begin erase_block $end
$var integer 32 V" x [31:0] $end
$upscope $end
$scope begin erase_bulk $end
$var integer 32 W" x [31:0] $end
$upscope $end
$scope begin erase_half_block $end
$var integer 32 X" x [31:0] $end
$upscope $end
$scope begin erase_resume $end
$upscope $end
$scope begin erase_secsi_sector $end
$var integer 32 Y" x [31:0] $end
$upscope $end
$scope begin erase_sector $end
$var integer 32 Z" x [31:0] $end
$upscope $end
$scope begin erase_suspend $end
$upscope $end
$scope begin initialization $end
$upscope $end
$scope begin power_down $end
$upscope $end
$scope begin power_up $end
$upscope $end
$scope begin program_to_page $end
$var integer 32 [" x [31:0] $end
$upscope $end
$scope begin program_to_secsi_page $end
$var integer 32 \" x [31:0] $end
$upscope $end
$scope begin read_opcode $end
$upscope $end
$scope begin reset $end
$upscope $end
$scope begin set_read_param $end
$upscope $end
$scope begin write_status_reg $end
$upscope $end
$scope task chip_reset $end
$var integer 32 ]" x [31:0] $end
$upscope $end
$scope task dump_mem $end
$var integer 32 ^" file [31:0] $end
$var integer 32 _" x [31:0] $end
$upscope $end
$scope task fill_page_latch $end
$var reg 1 `" flag_secsi $end
$var reg 24 a" prog_address [23:0] $end
$var reg 1 b" quadio $end
$var integer 32 c" address [31:0] $end
$var integer 32 d" x [31:0] $end
$upscope $end
$scope task get_negclk_holdn $end
$upscope $end
$scope task get_posclk_holdn $end
$upscope $end
$scope task input_byte $end
$var reg 8 e" input_data [7:0] $end
$var integer 32 f" x [31:0] $end
$upscope $end
$scope task input_byte_DTR $end
$var reg 8 g" input_data [7:0] $end
$var integer 32 h" x [31:0] $end
$upscope $end
$scope task input_byte_dual $end
$var reg 8 i" input_data [7:0] $end
$var integer 32 j" x [31:0] $end
$upscope $end
$scope task input_byte_dual_DTR $end
$var reg 8 k" input_data [7:0] $end
$var integer 32 l" x [31:0] $end
$upscope $end
$scope task input_byte_no1stclock $end
$var reg 8 m" input_data [7:0] $end
$var integer 32 n" x [31:0] $end
$upscope $end
$scope task input_byte_quad $end
$var reg 8 o" input_data [7:0] $end
$var integer 32 p" x [31:0] $end
$upscope $end
$scope task input_byte_quad_DTR $end
$var reg 8 q" input_data [7:0] $end
$var integer 32 r" x [31:0] $end
$upscope $end
$scope task input_byte_quad_no1stclock $end
$var reg 8 s" input_data [7:0] $end
$var integer 32 t" x [31:0] $end
$upscope $end
$scope task input_mode_dual $end
$var reg 6 u" input_data [5:0] $end
$var integer 32 v" x [31:0] $end
$upscope $end
$scope task output_byte $end
$var reg 8 w" output_data [7:0] $end
$var integer 32 x" x [31:0] $end
$upscope $end
$scope task output_byte_DTR $end
$var reg 8 y" output_data [7:0] $end
$var integer 32 z" x [31:0] $end
$upscope $end
$scope task output_byte_dual $end
$var reg 8 {" output_data [7:0] $end
$var integer 32 |" x [31:0] $end
$upscope $end
$scope task output_byte_dual_DTR $end
$var reg 8 }" output_data [7:0] $end
$var integer 32 ~" x [31:0] $end
$upscope $end
$scope task output_byte_quad $end
$var reg 8 !# output_data [7:0] $end
$var integer 32 "# x [31:0] $end
$upscope $end
$scope task output_byte_quad_DTR $end
$var reg 8 ## output_data [7:0] $end
$var integer 32 $# x [31:0] $end
$upscope $end
$scope task read_page $end
$var reg 2 %# fast_read [1:0] $end
$var reg 2 &# mem_read [1:0] $end
$var integer 32 '# x [31:0] $end
$upscope $end
$scope task read_page_dualio $end
$upscope $end
$scope task read_page_quadio $end
$var reg 8 (# cmd [7:0] $end
$var integer 32 )# x [31:0] $end
$upscope $end
$scope task wait_reset $end
$var reg 32 *# delay [31:0] $end
$var integer 32 +# num_iterations [31:0] $end
$var integer 32 ,# waitx [31:0] $end
$upscope $end
$scope task wait_reset_suspend $end
$var reg 32 -# delay [31:0] $end
$var integer 32 .# num_iterations [31:0] $end
$var integer 32 /# waitx [31:0] $end
$upscope $end
$scope task write_page $end
$var reg 1 0# quadio $end
$upscope $end
$upscope $end
$scope module as1802 $end
$var wire 16 1# PC [15:0] $end
$var wire 16 2# SP [15:0] $end
$var wire 1 + clk $end
$var wire 1 3# ena $end
$var wire 1 4# is_skip $end
$var wire 16 5# r0 [15:0] $end
$var wire 16 6# r1 [15:0] $end
$var wire 16 7# r10 [15:0] $end
$var wire 16 8# r11 [15:0] $end
$var wire 16 9# r12 [15:0] $end
$var wire 16 :# r13 [15:0] $end
$var wire 16 ;# r14 [15:0] $end
$var wire 16 <# r15 [15:0] $end
$var wire 16 =# r2 [15:0] $end
$var wire 16 ># r3 [15:0] $end
$var wire 16 ?# r4 [15:0] $end
$var wire 16 @# r5 [15:0] $end
$var wire 16 A# r6 [15:0] $end
$var wire 16 B# r7 [15:0] $end
$var wire 16 C# r8 [15:0] $end
$var wire 16 D# r9 [15:0] $end
$var wire 1 - rst_n $end
$var wire 16 E# sel_reg [15:0] $end
$var wire 1 F# should_branch $end
$var wire 8 G# ui_in [7:0] $end
$var wire 8 H# uio_in [7:0] $end
$var wire 8 I# uo_out [7:0] $end
$var wire 8 J# uio_out [7:0] $end
$var wire 8 K# uio_oe [7:0] $end
$var wire 8 L# uart_rec_byte [7:0] $end
$var wire 1 M# uart_has_byte $end
$var wire 1 N# uart_busy $end
$var wire 8 O# spi_rec_byte [7:0] $end
$var wire 1 P# spi_busy $end
$var wire 4 Q# op_high [3:0] $end
$var wire 4 R# ireg_addr [3:0] $end
$var wire 1 S# intr $end
$var wire 1 T# flag_init_done $end
$var wire 1 U# cond_inv $end
$var wire 4 V# ROM_DAT [3:0] $end
$var wire 4 W# RAM_DAT [3:0] $end
$var parameter 32 X# DFFRAM_SIZE $end
$var reg 8 Y# B [7:0] $end
$var reg 1 Z# CS_RAM $end
$var reg 1 [# CS_ROM $end
$var reg 8 \# D [7:0] $end
$var reg 1 ]# DF $end
$var reg 4 ^# EF_l [3:0] $end
$var reg 1 _# IE $end
$var reg 4 `# P [3:0] $end
$var reg 1 a# Q_l $end
$var reg 4 b# RAM_DO [3:0] $end
$var reg 4 c# RAM_OEB [3:0] $end
$var reg 4 d# RAM_delay_counter [3:0] $end
$var reg 4 e# RAM_delay_cycs [3:0] $end
$var reg 4 f# ROM_DO [3:0] $end
$var reg 4 g# ROM_OEB [3:0] $end
$var reg 2 h# S [1:0] $end
$var reg 1 i# SCLK_RAM $end
$var reg 1 j# SCLK_ROM $end
$var reg 8 k# T [7:0] $end
$var reg 4 l# X [3:0] $end
$var reg 16 m# addr_buff [15:0] $end
$var reg 1 n# branch_condition $end
$var reg 8 o# data_in [7:0] $end
$var reg 1 p# idle $end
$var reg 4 q# instr_cycle [3:0] $end
$var reg 8 r# instr_latch [7:0] $end
$var reg 16 s# last_addr [15:0] $end
$var reg 1 t# lda $end
$var reg 1 u# longbranch_condition $end
$var reg 8 v# mem_cycle [7:0] $end
$var reg 1 w# mem_write $end
$var reg 1 x# mrd_l $end
$var reg 1 y# mwr_l $end
$var reg 5 z# spi_cycle [4:0] $end
$var reg 8 {# spi_dat_out [7:0] $end
$var reg 8 |# spi_div [7:0] $end
$var reg 1 }# spi_start $end
$var reg 6 ~# startup_cycle [5:0] $end
$var reg 1 !$ tpa_l $end
$var reg 1 "$ uart_clear_status $end
$var reg 16 #$ uart_div [15:0] $end
$var reg 1 $$ uart_start $end
$var reg 1 %$ will_interrupt $end
$scope module spi $end
$var wire 1 &$ DI $end
$var wire 1 + clk $end
$var wire 8 '$ din [7:0] $end
$var wire 8 ($ divisor [7:0] $end
$var wire 1 )$ rst $end
$var wire 1 }# start $end
$var reg 1 *$ DO $end
$var reg 1 +$ SCLK $end
$var reg 1 P# busy $end
$var reg 5 ,$ counter [4:0] $end
$var reg 8 -$ data_in_buff [7:0] $end
$var reg 8 .$ data_out_buff [7:0] $end
$var reg 8 /$ div_counter [7:0] $end
$var reg 8 0$ dout [7:0] $end
$upscope $end
$scope module uart $end
$var wire 1 1$ RX $end
$var wire 1 + clk $end
$var wire 1 "$ clr_hb $end
$var wire 8 2$ din [7:0] $end
$var wire 16 3$ divisor [15:0] $end
$var wire 1 4$ rst $end
$var wire 1 $$ start $end
$var wire 1 5$ txclk $end
$var wire 1 6$ rxclk $end
$var reg 1 7$ TX $end
$var reg 1 N# busy $end
$var reg 4 8$ counter [3:0] $end
$var reg 10 9$ data_buff [9:0] $end
$var reg 16 :$ div_counter [15:0] $end
$var reg 8 ;$ dout [7:0] $end
$var reg 1 M# has_byte $end
$var reg 8 <$ receive_buff [7:0] $end
$var reg 4 =$ receive_counter [3:0] $end
$var reg 16 >$ receive_div_counter [15:0] $end
$var reg 1 ?$ receiving $end
$upscope $end
$upscope $end
$upscope $end
$enddefinitions $end
$comment Show the parameter values. $end
$dumpall
b10000000 X#
b10100 ""
b1111101000 !"
b100111000100000 ~
b101 }
b1100100 |
b110010 {
b1010 z
b111 y
b101 x
b1110010011100001110000000 w
b1111101000 v
b111010100110000 u
b111010100110000 t
b10101010111001100000 s
b1100 r
b101 q
b111 p
b101 o
b10 n
b101110111000 m
b10100 l
b1010 k
b1000 j
b1000 i
b111 h
b100 g
b100 f
b101 e
b101 d
b101 c
b101 b
b101 a
b111011100110101100101000000000 `
b1000111100001101000110000000 _
b111001001110000111000000000 ^
b100000010000000110000010000000101000001100000011100001000 ]
b1000000000000 \
b100000000 [
b11 Z
b10000000000000000 Y
b100011110 X
b100000000 W
b11101111 V
b11000 U
b1110000 T
b1000000000000000 S
b10111 R
b10000000000000000 Q
b111111111111111111111111 P
$end
#0
$dumpvars
0?$
b0 >$
bx =$
bx <$
b0 ;$
b0 :$
bx 9$
b0 8$
17$
x6$
x5$
14$
bx 3$
bx 2$
11$
b0 0$
bx /$
bx .$
bx -$
b11111 ,$
x+$
x*$
1)$
bx ($
bx '$
0&$
0%$
0$$
bx #$
0"$
0!$
b1 ~#
0}#
bx |#
bx {#
b0 z#
1y#
1x#
xw#
b0 v#
xu#
xt#
b11111111 s#
bx r#
b0 q#
0p#
bx o#
xn#
bx m#
b0 l#
b0 k#
0j#
0i#
bx h#
b1111 g#
b0 f#
b110 e#
bx d#
b1111 c#
b0 b#
0a#
b0 `#
1_#
bx ^#
0]#
b0 \#
1[#
1Z#
bx Y#
bz W#
bz V#
xU#
0T#
0S#
bx R#
bx Q#
xP#
b0 O#
0N#
0M#
b0 L#
b11111111 K#
b0 J#
bx101010 I#
bz H#
b10zzzz G#
xF#
bx E#
bx D#
bx C#
bx B#
bx A#
bx @#
bx ?#
bx >#
bx =#
bx <#
bx ;#
bx :#
bx 9#
bx 8#
bx 7#
bx 6#
b0 5#
x4#
13#
b0 2#
b0 1#
x0#
bx /#
bx .#
bx -#
bx ,#
bx +#
bx *#
bx )#
bx (#
bx '#
bx &#
bx %#
bx $#
bx ##
bx "#
bx !#
bx ~"
bx }"
bx |"
bx {"
bx z"
bx y"
bx x"
bx w"
bx v"
bx u"
bx t"
bx s"
bx r"
bx q"
bx p"
bx o"
bx n"
bx m"
bx l"
bx k"
bx j"
bx i"
bx h"
bx g"
bx f"
bx e"
bx d"
bx c"
xb"
bx a"
x`"
bx _"
bx ^"
b100011110 ]"
bx \"
bx ["
bx Z"
bx Y"
bx X"
bx W"
bx V"
bx U"
bx T"
bx S"
bx R"
b10000 Q"
0P"
0O"
0N"
bx M"
bx L"
b0 K"
bx J"
b0 I"
bx H"
b0 G"
b0 F"
b0 E"
b0 D"
0C"
0B"
0A"
0@"
0?"
0>"
x="
0<"
0;"
0:"
09"
08"
07"
06"
05"
04"
03"
02"
01"
00"
0/"
0."
b0 -"
bx ,"
0+"
0*"
0)"
0("
0'"
0&"
0%"
0$"
0#"
0O
0N
xM
0L
0K
0J
b0 I
0H
b0 G
b0 F
0E
b0 D
b0 C
b0 B
b0 A
b0 @
b0 ?
bx >
1=
1<
x;
0:
b0 9
b1111 8
b0 7
b1111 6
x5
04
03
12
b11111111 1
b0 0
bx101010 /
1.
0-
0,
1+
z*
z)
z(
z'
z&
z%
z$
z#
bz "
0!
$end
#1000
0M
#5000000
0+
#10000000
1+
#15000000
0+
#20000000
1+
#25000000
0+
#30000000
1+
#35000000
0+
#40000000
1+
#45000000
0+
#50000000
1+
#55000000
0+
#60000000
1+
#65000000
0+
#70000000
1+
#75000000
0+
#80000000
1+
#85000000
0+
#90000000
04$
0)$
1-
1+
#95000000
0+
#100000000
b1111 W#
b11zz V#
1#
1%
1'
1)
1(
b111111zz H#
1*
b111 f"
1:"
1L
0;
05
0=
b1111 9
b0 8
b1100 7
b11 6
0<
bx O#
bx 0$
0P#
0*$
0+$
0Z#
b1111 b#
b0 c#
b11111100 0
b11111100 J#
b1100 f#
b11 1
b11 K#
b11 g#
b1 z#
b11111111 {#
b100000 /
b100000 I#
0[#
b10 ~#
1+
#100001000
1M
#105000000
0+
#110000000
b11z1 V#
b111111z1 H#
1$
b1101 7
b10 6
b11111110 {#
b11111101 0
b11111101 J#
b1101 f#
b10 1
b10 K#
b10 g#
b10 z#
1+
#115000000
0+
#120000000
b110 f"
b1xxxxxxx e"
13
b100100 /
b100100 I#
1j#
b11 z#
1+
#125000000
0+
#130000000
03
b11111100 {#
b100000 /
b100000 I#
0j#
b100 z#
1+
#135000000
0+
#140000000
b101 f"
b11xxxxxx e"
13
b100100 /
b100100 I#
1j#
b101 z#
1+
#145000000
0+
#150000000
03
b11111000 {#
b100000 /
b100000 I#
0j#
b110 z#
1+
#155000000
0+
#160000000
b100 f"
b111xxxxx e"
13
b100100 /
b100100 I#
1j#
b111 z#
1+
#165000000
0+
#170000000
03
b11110000 {#
b100000 /
b100000 I#
0j#
b1000 z#
1+
#175000000
0+
#180000000
b11 f"
b1111xxxx e"
13
b100100 /
b100100 I#
1j#
b1001 z#
1+
#185000000
0+
#190000000
03
b11100000 {#
b100000 /
b100000 I#
0j#
b1010 z#
1+
#195000000
0+
#200000000
b10 f"
b11111xxx e"
13
b100100 /
b100100 I#
1j#
b1011 z#
1+
#205000000
0+
#210000000
03
b11000000 {#
b100000 /
b100000 I#
0j#
b1100 z#
1+
#215000000
0+
#220000000
b1 f"
b111111xx e"
13
b100100 /
b100100 I#
1j#
b1101 z#
1+
#225000000
0+
#230000000
03
b10000000 {#
b100000 /
b100000 I#
0j#
b1110 z#
1+
#235000000
0+
#240000000
b0 f"
b1111111x e"
13
b100100 /
b100100 I#
1j#
b1111 z#
1+
#245000000
0+
#250000000
03
b0 {#
b100000 /
b100000 I#
0j#
b10000 z#
1+
#255000000
0+
#260000000
b11111111 S"
b11111111 -"
b11111111 D"
b11111111111111111111111111111111 f"
b11111111 e"
13
b100100 /
b100100 I#
1j#
b10001 z#
1+
#265000000
0+
#270000000
b11zz V#
b111111zz H#
z$
b1100 7
b11 6
03
b11111100 0
b11111100 J#
b1100 f#
b11 1
b11 K#
b11 g#
b100000 /
b100000 I#
0j#
b0 z#
1+
#275000000
0+
#280000000
b1 @
b1 I
0L
14
1<
1i#
b110010 /
b110010 I#
1[#
b11 ~#
1+
#285000000
0+
#290000000
b101 W#
0%
b10111zz H#
0)
b111 f"
1L
b101 9
04
0<
b1011100 0
b1011100 J#
b101 b#
0i#
b1 z#
b10101011 {#
b100000 /
b100000 I#
0[#
b100 ~#
1+
#295000000
0+
#300000000
b11z1 V#
b10111z1 H#
1$
b1101 7
b10 6
b1010110 {#
b1011101 0
b1011101 J#
b1101 f#
b10 1
b10 K#
b10 g#
b10 z#
1+
#305000000
0+
#310000000
b110 f"
13
b100100 /
b100100 I#
1j#
b11 z#
1+
#315000000
0+
#320000000
b11z0 V#
b10111z0 H#
0$
b1100 7
03
b10101100 {#
b1011100 0
b1011100 J#
b1100 f#
b100000 /
b100000 I#
0j#
b100 z#
1+
#325000000
0+
#330000000
b101 f"
b10111111 e"
13
b100100 /
b100100 I#
1j#
b101 z#
1+
#335000000
0+
#340000000
b11z1 V#
b10111z1 H#
1$
b1101 7
03
b1011000 {#
b1011101 0
b1011101 J#
b1101 f#
b100000 /
b100000 I#
0j#
b110 z#
1+
#345000000
0+
#350000000
b100 f"
13
b100100 /
b100100 I#
1j#
b111 z#
1+
#355000000
0+
#360000000
b11z0 V#
b10111z0 H#
0$
b1100 7
03
b10110000 {#
b1011100 0
b1011100 J#
b1100 f#
b100000 /
b100000 I#
0j#
b1000 z#
1+
#365000000
0+
#370000000
b11 f"
b10101111 e"
13
b100100 /
b100100 I#
1j#
b1001 z#
1+
#375000000
0+
#380000000
b11z1 V#
b10111z1 H#
1$
b1101 7
03
b1100000 {#
b1011101 0
b1011101 J#
b1101 f#
b100000 /
b100000 I#
0j#
b1010 z#
1+
#385000000
0+
#390000000
b10 f"
13
b100100 /
b100100 I#
1j#
b1011 z#
1+
#395000000
0+
#400000000
b11z0 V#
b10111z0 H#
0$
b1100 7
03
b11000000 {#
b1011100 0
b1011100 J#
b1100 f#
b100000 /
b100000 I#
0j#
b1100 z#
1+
#405000000
0+
#410000000
b1 f"
b10101011 e"
13
b100100 /
b100100 I#
1j#
b1101 z#
1+
#415000000
0+
#420000000
b11z1 V#
b10111z1 H#
1$
b1101 7
03
b10000000 {#
b1011101 0
b1011101 J#
b1101 f#
b100000 /
b100000 I#
0j#
b1110 z#
1+
#425000000
0+
#430000000
b0 f"
13
b100100 /
b100100 I#
1j#
b1111 z#
1+
#435000000
0+
#440000000
03
b0 {#
b100000 /
b100000 I#
0j#
b10000 z#
1+
#445000000
0+
#450000000
15"
b10101011 S"
b10101011 -"
b10101011 D"
b111 f"
13
b100100 /
b100100 I#
1j#
b10001 z#
1+
#455000000
0+
#460000000
b11zz V#
b10111zz H#
z$
b1100 7
b11 6
03
b1011100 0
b1011100 J#
b1100 f#
b11 1
b11 K#
b11 g#
b100000 /
b100000 I#
0j#
b0 z#
1+
#465000000
0+
#470000000
b11 @
b10 I
0L
14
1<
1i#
b110010 /
b110010 I#
1[#
b101 ~#
1+
#475000000
0+
#480000000
b0 @
b0 I
1L
1=
04
0<
1Z#
0i#
b1 z#
b110 {#
b101000 /
b101000 I#
0[#
b110 ~#
1+
#485000000
0+
#490000000
b11z0 V#
b10111z0 H#
0$
b10 6
b1100 {#
b10 1
b10 K#
b10 g#
b10 z#
1+
#495000000
0+
#500000000
b110 f"
b101011 e"
13
b101100 /
b101100 I#
1j#
b11 z#
1+
05"
#505000000
0+
#510000000
03
b11000 {#
b101000 /
b101000 I#
0j#
b100 z#
1+
#515000000
0+
#520000000
b101 f"
13
b101100 /
b101100 I#
1j#
b101 z#
1+
#525000000
0+
#530000000
03
b110000 {#
b101000 /
b101000 I#
0j#
b110 z#
1+
#535000000
0+
#540000000
b100 f"
b1011 e"
13
b101100 /
b101100 I#
1j#
b111 z#
1+
#545000000
0+
#550000000
03
b1100000 {#
b101000 /
b101000 I#
0j#
b1000 z#
1+
#555000000
0+
#560000000
b11 f"
13
b101100 /
b101100 I#
1j#
b1001 z#
1+
#565000000
0+
#570000000
03
b11000000 {#
b101000 /
b101000 I#
0j#
b1010 z#
1+
#575000000
0+
#580000000
b10 f"
b11 e"
13
b101100 /
b101100 I#
1j#
b1011 z#
1+
#585000000
0+
#590000000
b11z1 V#
b10111z1 H#
1$
b1101 7
03
b10000000 {#
b1011101 0
b1011101 J#
b1101 f#
b101000 /
b101000 I#
0j#
b1100 z#
1+
#595000000
0+
#600000000
b1 f"
b111 e"
13
b101100 /
b101100 I#
1j#
b1101 z#
1+
#605000000
0+
#610000000
03
b0 {#
b101000 /
b101000 I#
0j#
b1110 z#
1+
#615000000
0+
#620000000
b0 f"
13
b101100 /
b101100 I#
1j#
b1111 z#
1+
#625000000
0+
#630000000
b11z0 V#
b10111z0 H#
0$
b1100 7
03
b1011100 0
b1011100 J#
b1100 f#
b101000 /
b101000 I#
0j#
b10000 z#
1+
#635000000
0+
#640000000
b10 K"
b110 S"
b110 -"
b110 D"
b11111111111111111111111111111111 f"
b110 e"
13
b101100 /
b101100 I#
1j#
b10001 z#
1+
#645000000
0+
#650000000
b11zz V#
b10111zz H#
z$
b11 6
03
b11 1
b11 K#
b11 g#
b101000 /
b101000 I#
0j#
b0 z#
1+
#655000000
0+
#660000000
0L
1<
b101010 /
b101010 I#
1[#
b111 ~#
1+
#665000000
0+
#670000000
b111 f"
1L
0<
b1 z#
b1 {#
b101000 /
b101000 I#
0[#
b1000 ~#
1+
#675000000
0+
#680000000
b11z0 V#
b10111z0 H#
0$
b10 6
b10 {#
b10 1
b10 K#
b10 g#
b10 z#
1+
#685000000
0+
#690000000
b110 f"
13
b101100 /
b101100 I#
1j#
b11 z#
1+
#695000000
0+
#700000000
03
b100 {#
b101000 /
b101000 I#
0j#
b100 z#
1+
#705000000
0+
#710000000
b101 f"
13
b101100 /
b101100 I#
1j#
b101 z#
1+
#715000000
0+
#720000000
03
b1000 {#
b101000 /
b101000 I#
0j#
b110 z#
1+
#725000000
0+
#730000000
b100 f"
13
b101100 /
b101100 I#
1j#
b111 z#
1+
#735000000
0+
#740000000
03
b10000 {#
b101000 /
b101000 I#
0j#
b1000 z#
1+
#745000000
0+
#750000000
b11 f"
13
b101100 /
b101100 I#
1j#
b1001 z#
1+
#755000000
0+
#760000000
03
b100000 {#
b101000 /
b101000 I#
0j#
b1010 z#
1+
#765000000
0+
#770000000
b10 f"
13
b101100 /
b101100 I#
1j#
b1011 z#
1+
#775000000
0+
#780000000
03
b1000000 {#
b101000 /
b101000 I#
0j#
b1100 z#
1+
#785000000
0+
#790000000
b1 f"
b10 e"
13
b101100 /
b101100 I#
1j#
b1101 z#
1+
#795000000
0+
#800000000
03
b10000000 {#
b101000 /
b101000 I#
0j#
b1110 z#
1+
#805000000
0+
#810000000
b0 f"
b0 e"
13
b101100 /
b101100 I#
1j#
b1111 z#
1+
#815000000
0+
#820000000
b11z1 V#
b10111z1 H#
1$
b1101 7
03
b0 {#
b1011101 0
b1011101 J#
b1101 f#
b101000 /
b101000 I#
0j#
b10000 z#
1+
#825000000
0+
#830000000
b0xxxxxxxx L"
0:"
b1 S"
b1 -"
b1 D"
b111 f"
b1 e"
13
b101100 /
b101100 I#
1j#
b10001 z#
1+
#830001000
0M
#835000000
0+
#840000000
b11zz V#
b10111zz H#
z$
b1100 7
b11 6
03
b1011100 0
b1011100 J#
b1100 f#
b11 1
b11 K#
b11 g#
b101000 /
b101000 I#
0j#
b0 z#
1+
#845000000
0+
#850000000
b1 z#
b10 {#
b1001 ~#
1+
#855000000
0+
#860000000
b11z0 V#
b10111z0 H#
0$
b10 6
b100 {#
b10 1
b10 K#
b10 g#
b10 z#
1+
#865000000
0+
#870000000
b110 f"
13
b101100 /
b101100 I#
1j#
b11 z#
1+
#875000000
0+
#880000000
03
b1000 {#
b101000 /
b101000 I#
0j#
b100 z#
1+
#885000000
0+
#890000000
b101 f"
13
b101100 /
b101100 I#
1j#
b101 z#
1+
#895000000
0+
#900000000
03
b10000 {#
b101000 /
b101000 I#
0j#
b110 z#
1+
#905000000
0+
#910000000
b100 f"
13
b101100 /
b101100 I#
1j#
b111 z#
1+
#915000000
0+
#920000000
03
b100000 {#
b101000 /
b101000 I#
0j#
b1000 z#
1+
#925000000
0+
#930000000
b11 f"
13
b101100 /
b101100 I#
1j#
b1001 z#
1+
#935000000
0+
#940000000
03
b1000000 {#
b101000 /
b101000 I#
0j#
b1010 z#
1+
#945000000
0+
#950000000
b10 f"
13
b101100 /
b101100 I#
1j#
b1011 z#
1+
#955000000
0+
