src/tb.vcd
$date
	Sun May 28 01:43:25 2023
$end
$version
	Icarus Verilog
$end
$timescale
	1ps
$end
$scope module tb $end
$var wire 4 ! EF [3:0] $end
$var wire 1 " IO0_ROM $end
$var wire 1 # IO1_ROM $end
$var wire 1 $ IO2_ROM $end
$var wire 1 % IO3_ROM $end
$var wire 1 & clk $end
$var wire 1 ' intr $end
$var wire 1 ( rst_n $end
$var wire 1 ) uart_rx $end
$var wire 8 * uo_out [7:0] $end
$var wire 8 + uio_out [7:0] $end
$var wire 8 , uio_oe [7:0] $end
$var wire 1 - uart_tx $end
$var wire 1 . SCLK_ROM $end
$var wire 1 / SCLK_RAM $end
$var wire 4 0 ROM_OEB [3:0] $end
$var wire 4 1 ROM_DO [3:0] $end
$var wire 4 2 RAM_OEB [3:0] $end
$var wire 4 3 RAM_DO [3:0] $end
$var wire 1 4 Q $end
$var wire 1 5 IO3_RAM $end
$var wire 1 6 IO2_RAM $end
$var wire 1 7 IO1_RAM $end
$var wire 1 8 IO0_RAM $end
$var wire 1 9 CS_ROM $end
$var wire 1 : CS_RAM $end
$scope module W25Q128JVxIM $end
$var wire 1 . CLK $end
$var wire 1 9 CSn $end
$var wire 1 " DIO $end
$var wire 1 ; DIO_Output_Enable $end
$var wire 1 # DO $end
$var wire 1 % HOLDn $end
$var wire 1 $ WPn $end
$var wire 1 < WPn_Output_Enable $end
$var wire 1 = flag_quad_mode_cs $end
$var wire 1 > flag_read_op $end
$var wire 1 ? flag_slow_read $end
$var wire 1 @ flag_quad_mode $end
$var parameter 65 A ADDRESS_MASK $end
$var parameter 32 B BLOCKSIZE $end
$var parameter 8 C DEVICE_ID $end
$var parameter 32 D HALFBLOCKSIZE $end
$var parameter 8 E JEDEC_ID_HI $end
$var parameter 8 F JEDEC_ID_LO $end
$var parameter 8 G MANUFACTURER $end
$var parameter 64 H NUM_BLOCKS $end
$var parameter 66 I NUM_LOCKBITS $end
$var parameter 32 J NUM_PAGES $end
$var parameter 32 K NUM_SEC_PAGES $end
$var parameter 32 L PAGESIZE $end
$var parameter 32 M SECTORSIZE $end
$var parameter 64 N UNIQUE_ID $end
$var parameter 32 O tBE1 $end
$var parameter 32 P tBE2 $end
$var parameter 32 Q tCE_40 $end
$var parameter 32 R tCHDX $end
$var parameter 32 S tCHHH $end
$var parameter 32 T tCHHL $end
$var parameter 32 U tCHSH $end
$var parameter 32 V tCHSL $end
$var parameter 32 W tCLH $end
$var parameter 32 X tCLL $end
$var parameter 32 Y tCLQV $end
$var parameter 32 Z tCRLH $end
$var parameter 32 [ tCRLL $end
$var parameter 32 \ tCYC $end
$var parameter 32 ] tCYCR $end
$var parameter 32 ^ tDP $end
$var parameter 32 _ tDVCH $end
$var parameter 32 ` tHHCH $end
$var parameter 32 a tHHQX $end
$var parameter 32 b tHLCH $end
$var parameter 32 c tHLQZ $end
$var parameter 32 d tPP $end
$var parameter 32 e tRES1 $end
$var parameter 32 f tRES2 $end
$var parameter 32 g tReset_Suspend_Max $end
$var parameter 32 h tSE $end
$var parameter 32 i tSHCH $end
$var parameter 32 j tSHQZ $end
$var parameter 32 k tSHSL_R $end
$var parameter 32 l tSHSL_W $end
$var parameter 32 m tSHWL $end
$var parameter 32 n tSLCH $end
$var parameter 32 o tSUS $end
$var parameter 32 p tW $end
$var parameter 32 q tWHSL $end
$var reg 1 r DIO_Output_Enable_reg $end
$var reg 1 s DIO_Reg $end
$var reg 1 t DO_Output_Enable $end
$var reg 1 u DO_Reg $end
$var reg 1 v HOLDn_Active $end
$var reg 1 w HOLDn_Output_Enable $end
$var reg 1 x HOLDn_Reg $end
$var reg 1 y WPn_Output_Enable_reg $end
$var reg 1 z WPn_Reg $end
$var reg 24 { byte_address [23:0] $end
$var reg 8 | cmd_byte [7:0] $end
$var reg 1 } flag_enable_reset $end
$var reg 1 ~ flag_erase_block $end
$var reg 1 !" flag_erase_bulk $end
$var reg 1 "" flag_erase_half_block $end
$var reg 1 #" flag_erase_secsi_sector $end
$var reg 1 $" flag_erase_sector $end
$var reg 1 %" flag_power_down $end
$var reg 1 &" flag_power_up_exec $end
$var reg 1 '" flag_power_up_sig_read $end
$var reg 1 (" flag_prog_page $end
$var reg 1 )" flag_prog_secsi_page $end
$var reg 1 *" flag_qpi_mode $end
$var reg 1 +" flag_read_op_reg $end
$var reg 1 ," flag_reset $end
$var reg 1 -" flag_reset_condition $end
$var reg 1 ." flag_resume $end
$var reg 1 /" flag_set_read_param $end
$var reg 1 0" flag_slow_read_reg $end
$var reg 1 1" flag_suspend $end
$var reg 1 2" flag_suspend_enabled $end
$var reg 1 3" flag_volatile_sr_write $end
$var reg 1 4" flag_write_status_reg $end
$var reg 8 5" in_byte [7:0] $end
$var reg 8 6" mode_reg [7:0] $end
$var reg 8 7" null_reg [7:0] $end
$var reg 8 8" out_byte [7:0] $end
$var reg 24 9" prog_byte_address [23:0] $end
$var reg 8 :" read_param_reg [7:0] $end
$var reg 8 ;" read_param_reg_shadow [7:0] $end
$var reg 24 <" status_reg [23:0] $end
$var reg 24 =" status_reg_shadow [23:0] $end
$var reg 8 >" temp [7:0] $end
$var reg 1 ?" temp_DIO_Output_Enable_reg $end
$var reg 1 @" temp_DO_Output_Enable $end
$var reg 1 A" timing_error $end
$var reg 8 B" wrap_reg [7:0] $end
$var integer 32 C" x [31:0] $end
$scope function is_qpi $end
$var reg 8 D" cmd_byte [7:0] $end
$upscope $end
$scope function lockbit_index $end
$var reg 24 E" byte_address [23:0] $end
$upscope $end
$scope function write_protected $end
$var reg 24 F" byte_address [23:0] $end
$upscope $end
$scope begin disable_interface $end
$upscope $end
$scope begin erase_block $end
$var integer 32 G" x [31:0] $end
$upscope $end
$scope begin erase_bulk $end
$var integer 32 H" x [31:0] $end
$upscope $end
$scope begin erase_half_block $end
$var integer 32 I" x [31:0] $end
$upscope $end
$scope begin erase_resume $end
$upscope $end
$scope begin erase_secsi_sector $end
$var integer 32 J" x [31:0] $end
$upscope $end
$scope begin erase_sector $end
$var integer 32 K" x [31:0] $end
$upscope $end
$scope begin erase_suspend $end
$upscope $end
$scope begin initialization $end
$upscope $end
$scope begin power_down $end
$upscope $end
$scope begin power_up $end
$upscope $end
$scope begin program_to_page $end
$var integer 32 L" x [31:0] $end
$upscope $end
$scope begin program_to_secsi_page $end
$var integer 32 M" x [31:0] $end
$upscope $end
$scope begin read_opcode $end
$upscope $end
$scope begin reset $end
$upscope $end
$scope begin set_read_param $end
$upscope $end
$scope begin write_status_reg $end
$upscope $end
$scope task chip_reset $end
$var integer 32 N" x [31:0] $end
$upscope $end
$scope task dump_mem $end
$var integer 32 O" file [31:0] $end
$var integer 32 P" x [31:0] $end
$upscope $end
$scope task fill_page_latch $end
$var reg 1 Q" flag_secsi $end
$var reg 24 R" prog_address [23:0] $end
$var reg 1 S" quadio $end
$var integer 32 T" address [31:0] $end
$var integer 32 U" x [31:0] $end
$upscope $end
$scope task get_negclk_holdn $end
$upscope $end
$scope task get_posclk_holdn $end
$upscope $end
$scope task input_byte $end
$var reg 8 V" input_data [7:0] $end
$var integer 32 W" x [31:0] $end
$upscope $end
$scope task input_byte_DTR $end
$var reg 8 X" input_data [7:0] $end
$var integer 32 Y" x [31:0] $end
$upscope $end
$scope task input_byte_dual $end
$var reg 8 Z" input_data [7:0] $end
$var integer 32 [" x [31:0] $end
$upscope $end
$scope task input_byte_dual_DTR $end
$var reg 8 \" input_data [7:0] $end
$var integer 32 ]" x [31:0] $end
$upscope $end
$scope task input_byte_no1stclock $end
$var reg 8 ^" input_data [7:0] $end
$var integer 32 _" x [31:0] $end
$upscope $end
$scope task input_byte_quad $end
$var reg 8 `" input_data [7:0] $end
$var integer 32 a" x [31:0] $end
$upscope $end
$scope task input_byte_quad_DTR $end
$var reg 8 b" input_data [7:0] $end
$var integer 32 c" x [31:0] $end
$upscope $end
$scope task input_byte_quad_no1stclock $end
$var reg 8 d" input_data [7:0] $end
$var integer 32 e" x [31:0] $end
$upscope $end
$scope task input_mode_dual $end
$var reg 6 f" input_data [5:0] $end
$var integer 32 g" x [31:0] $end
$upscope $end
$scope task output_byte $end
$var reg 8 h" output_data [7:0] $end
$var integer 32 i" x [31:0] $end
$upscope $end
$scope task output_byte_DTR $end
$var reg 8 j" output_data [7:0] $end
$var integer 32 k" x [31:0] $end
$upscope $end
$scope task output_byte_dual $end
$var reg 8 l" output_data [7:0] $end
$var integer 32 m" x [31:0] $end
$upscope $end
$scope task output_byte_dual_DTR $end
$var reg 8 n" output_data [7:0] $end
$var integer 32 o" x [31:0] $end
$upscope $end
$scope task output_byte_quad $end
$var reg 8 p" output_data [7:0] $end
$var integer 32 q" x [31:0] $end
$upscope $end
$scope task output_byte_quad_DTR $end
$var reg 8 r" output_data [7:0] $end
$var integer 32 s" x [31:0] $end
$upscope $end
$scope task read_page $end
$var reg 2 t" fast_read [1:0] $end
$var reg 2 u" mem_read [1:0] $end
$var integer 32 v" x [31:0] $end
$upscope $end
$scope task read_page_dualio $end
$upscope $end
$scope task read_page_quadio $end
$var reg 8 w" cmd [7:0] $end
$var integer 32 x" x [31:0] $end
$upscope $end
$scope task wait_reset $end
$var reg 32 y" delay [31:0] $end
$var integer 32 z" num_iterations [31:0] $end
$var integer 32 {" waitx [31:0] $end
$upscope $end
$scope task wait_reset_suspend $end
$var reg 32 |" delay [31:0] $end
$var integer 32 }" num_iterations [31:0] $end
$var integer 32 ~" waitx [31:0] $end
$upscope $end
$scope task write_page $end
$var reg 1 !# quadio $end
$upscope $end
$upscope $end
$scope module as1802 $end
$var wire 16 "# PC [15:0] $end
$var wire 16 ## SP [15:0] $end
$var wire 1 & clk $end
$var wire 1 $# ena $end
$var wire 1 %# is_skip $end
$var wire 16 &# r0 [15:0] $end
$var wire 16 '# r1 [15:0] $end
$var wire 16 (# r10 [15:0] $end
$var wire 16 )# r11 [15:0] $end
$var wire 16 *# r12 [15:0] $end
$var wire 16 +# r13 [15:0] $end
$var wire 16 ,# r14 [15:0] $end
$var wire 16 -# r15 [15:0] $end
$var wire 16 .# r2 [15:0] $end
$var wire 16 /# r3 [15:0] $end
$var wire 16 0# r4 [15:0] $end
$var wire 16 1# r5 [15:0] $end
$var wire 16 2# r6 [15:0] $end
$var wire 16 3# r7 [15:0] $end
$var wire 16 4# r8 [15:0] $end
$var wire 16 5# r9 [15:0] $end
$var wire 1 ( rst_n $end
$var wire 16 6# sel_reg [15:0] $end
$var wire 1 7# should_branch $end
$var wire 8 8# ui_in [7:0] $end
$var wire 8 9# uio_in [7:0] $end
$var wire 8 :# uo_out [7:0] $end
$var wire 8 ;# uio_out [7:0] $end
$var wire 8 <# uio_oe [7:0] $end
$var wire 8 =# uart_rec_byte [7:0] $end
$var wire 1 ># uart_has_byte $end
$var wire 1 ?# uart_busy $end
$var wire 4 @# op_high [3:0] $end
$var wire 4 A# ireg_addr [3:0] $end
$var wire 1 B# intr $end
$var wire 1 C# flag_init_done $end
$var wire 1 D# cond_inv $end
$var wire 4 E# ROM_DAT [3:0] $end
$var wire 4 F# RAM_DAT [3:0] $end
$var parameter 32 G# DFFRAM_SIZE $end
$var reg 8 H# B [7:0] $end
$var reg 1 I# CS_RAM $end
$var reg 1 J# CS_ROM $end
$var reg 8 K# D [7:0] $end
$var reg 1 L# DF $end
$var reg 4 M# EF_l [3:0] $end
$var reg 1 N# IE $end
$var reg 4 O# P [3:0] $end
$var reg 1 P# Q_l $end
$var reg 4 Q# RAM_DO [3:0] $end
$var reg 4 R# RAM_OEB [3:0] $end
$var reg 4 S# ROM_DO [3:0] $end
$var reg 4 T# ROM_OEB [3:0] $end
$var reg 2 U# S [1:0] $end
$var reg 1 V# SCLK_RAM $end
$var reg 1 W# SCLK_ROM $end
$var reg 8 X# T [7:0] $end
$var reg 4 Y# X [3:0] $end
$var reg 16 Z# addr_buff [15:0] $end
$var reg 1 [# branch_condition $end
$var reg 8 \# data_in [7:0] $end
$var reg 1 ]# idle $end
$var reg 4 ^# instr_cycle [3:0] $end
$var reg 8 _# instr_latch [7:0] $end
$var reg 16 `# last_addr [15:0] $end
$var reg 1 a# lda $end
$var reg 1 b# longbranch_condition $end
$var reg 5 c# mem_cycle [4:0] $end
$var reg 1 d# mem_write $end
$var reg 1 e# mrd_l $end
$var reg 1 f# mwr_l $end
$var reg 5 g# spi_cycle [4:0] $end
$var reg 8 h# spi_dat_out [7:0] $end
$var reg 6 i# startup_cycle [5:0] $end
$var reg 1 j# tpa_l $end
$var reg 1 k# uart_clear_status $end
$var reg 16 l# uart_div [15:0] $end
$var reg 1 m# uart_start $end
$var reg 1 n# will_interrupt $end
$scope module uart $end
$var wire 1 o# RX $end
$var wire 1 & clk $end
$var wire 1 k# clr_hb $end
$var wire 8 p# din [7:0] $end
$var wire 16 q# divisor [15:0] $end
$var wire 1 r# rst $end
$var wire 1 m# start $end
$var wire 1 s# txclk $end
$var wire 1 t# rxclk $end
$var reg 1 u# TX $end
$var reg 1 ?# busy $end
$var reg 4 v# counter [3:0] $end
$var reg 10 w# data_buff [9:0] $end
$var reg 16 x# div_counter [15:0] $end
$var reg 8 y# dout [7:0] $end
$var reg 1 ># has_byte $end
$var reg 8 z# receive_buff [7:0] $end
$var reg 4 {# receive_counter [3:0] $end
$var reg 16 |# receive_div_counter [15:0] $end
$var reg 1 }# receiving $end
$upscope $end
$upscope $end
$upscope $end
$enddefinitions $end
$comment Show the parameter values. $end
$dumpall
b10000000 G#
b10100 q
b1111101000 p
b100111000100000 o
b101 n
b1100100 m
b110010 l
b1010 k
b111 j
b101 i
b1110010011100001110000000 h
b1111101000 g
b111010100110000 f
b111010100110000 e
b10101010111001100000 d
b1100 c
b101 b
b111 a
b101 `
b10 _
b101110111000 ^
b10100 ]
b1010 \
b1000 [
b1000 Z
b111 Y
b100 X
b100 W
b101 V
b101 U
b101 T
b101 S
b101 R
b111011100110101100101000000000 Q
b1000111100001101000110000000 P
b111001001110000111000000000 O
b100000010000000110000010000000101000001100000011100001000 N
b1000000000000 M
b100000000 L
b11 K
b10000000000000000 J
b100011110 I
b100000000 H
b11101111 G
b11000 F
b1110000 E
b1000000000000000 D
b10111 C
b10000000000000000 B
b111111111111111111111111 A
$end
#0
$dumpvars
0}#
b0 |#
bx {#
bx z#
b0 y#
b0 x#
bx w#
b0 v#
1u#
xt#
xs#
1r#
bx q#
bx p#
1o#
0n#
0m#
bx l#
0k#
0j#
b1 i#
bx h#
b0 g#
1f#
1e#
xd#
b0 c#
xb#
xa#
b11111111 `#
bx _#
b0 ^#
0]#
bx \#
x[#
bx Z#
b0 Y#
b0 X#
0W#
0V#
bx U#
b1111 T#
b0 S#
b1111 R#
b0 Q#
0P#
b0 O#
1N#
bx M#
0L#
b0 K#
1J#
1I#
bx H#
bz F#
bz E#
xD#
0C#
0B#
bx A#
bx @#
0?#
0>#
b0 =#
b11111111 <#
b0 ;#
bz011z010 :#
bz 9#
b10zzzz 8#
x7#
bx 6#
bx 5#
bx 4#
bx 3#
bx 2#
bx 1#
bx 0#
bx /#
bx .#
bx -#
bx ,#
bx +#
bx *#
bx )#
bx (#
bx '#
b0 &#
x%#
1$#
b0 ##
b0 "#
x!#
bx ~"
bx }"
bx |"
bx {"
bx z"
bx y"
bx x"
bx w"
bx v"
bx u"
bx t"
bx s"
bx r"
bx q"
bx p"
bx o"
bx n"
bx m"
bx l"
bx k"
bx j"
bx i"
bx h"
bx g"
bx f"
bx e"
bx d"
bx c"
bx b"
bx a"
bx `"
bx _"
bx ^"
bx ]"
bx \"
bx ["
bx Z"
bx Y"
bx X"
bx W"
bx V"
bx U"
bx T"
xS"
bx R"
xQ"
bx P"
bx O"
b100011110 N"
bx M"
bx L"
bx K"
bx J"
bx I"
bx H"
bx G"
bx F"
bx E"
bx D"
bx C"
b10000 B"
0A"
0@"
0?"
bx >"
bx ="
b0 <"
bx ;"
b0 :"
bx 9"
b0 8"
b0 7"
b0 6"
b0 5"
04"
03"
02"
01"
00"
0/"
x."
0-"
0,"
0+"
0*"
0)"
0("
0'"
0&"
0%"
0$"
0#"
0""
0!"
0~
0}
b0 |
bx {
0z
0y
0x
0w
0v
0u
0t
0s
0r
0@
0?
x>
0=
0<
0;
1:
19
z8
z7
z6
z5
04
b0 3
b1111 2
b0 1
b1111 0
0/
0.
1-
b11111111 ,
b0 +
bz011z010 *
1)
0(
0'
1&
z%
z$
z#
z"
bz !
$end
#1000
0>
#5000000
0&
#10000000
1&
#15000000
0&
#20000000
1&
#25000000
0&
#30000000
1&
#35000000
0&
#40000000
1&
#45000000
0&
#50000000
1&
#55000000
0&
#60000000
1&
#65000000
0&
#70000000
1&
#75000000
0&
#80000000
1&
#85000000
0&
#90000000
0r#
1(
1&
#95000000
0&
#100000000
b1111 F#
b11zz E#
18
17
16
15
1$
b111111zz 9#
1%
b111 W"
1+"
1=
0:
b1111 3
b0 2
b1100 1
b11 0
09
0I#
b1111 Q#
b0 R#
b11111100 +
b11111100 ;#
b1100 S#
b11 ,
b11 <#
b11 T#
b1 g#
b11111111 h#
bz001z000 *
bz001z000 :#
0J#
b10 i#
1&
#100001000
1>
#105000000
0&
#110000000
b11z1 E#
b111111z1 9#
1"
b1101 1
b10 0
b11111110 h#
b11111101 +
b11111101 ;#
b1101 S#
b10 ,
b10 <#
b10 T#
b10 g#
1&
#115000000
0&
#120000000
b110 W"
b1xxxxxxx V"
1.
bz001z100 *
bz001z100 :#
1W#
b11 g#
1&
#125000000
0&
#130000000
0.
b11111100 h#
bz001z000 *
bz001z000 :#
0W#
b100 g#
1&
#135000000
0&
#140000000
b101 W"
b11xxxxxx V"
1.
bz001z100 *
bz001z100 :#
1W#
b101 g#
1&
#145000000
0&
#150000000
0.
b11111000 h#
bz001z000 *
bz001z000 :#
0W#
b110 g#
1&
#155000000
0&
#160000000
b100 W"
b111xxxxx V"
1.
bz001z100 *
bz001z100 :#
1W#
b111 g#
1&
#165000000
0&
#170000000
0.
b11110000 h#
bz001z000 *
bz001z000 :#
0W#
b1000 g#
1&
#175000000
0&
#180000000
b11 W"
b1111xxxx V"
1.
bz001z100 *
bz001z100 :#
1W#
b1001 g#
1&
#185000000
0&
#190000000
0.
b11100000 h#
bz001z000 *
bz001z000 :#
0W#
b1010 g#
1&
#195000000
0&
#200000000
b10 W"
b11111xxx V"
1.
bz001z100 *
bz001z100 :#
1W#
b1011 g#
1&
#205000000
0&
#210000000
0.
b11000000 h#
bz001z000 *
bz001z000 :#
0W#
b1100 g#
1&
#215000000
0&
#220000000
b1 W"
b111111xx V"
1.
bz001z100 *
bz001z100 :#
1W#
b1101 g#
1&
#225000000
0&
#230000000
0.
b10000000 h#
bz001z000 *
bz001z000 :#
0W#
b1110 g#
1&
#235000000
0&
#240000000
b0 W"
b1111111x V"
1.
bz001z100 *
bz001z100 :#
1W#
b1111 g#
1&
#245000000
0&
#250000000
0.
b0 h#
bz001z000 *
bz001z000 :#
0W#
b10000 g#
1&
#255000000
0&
#260000000
b11111111 D"
b11111111 |
b11111111 5"
b11111111111111111111111111111111 W"
b11111111 V"
1.
bz001z100 *
bz001z100 :#
1W#
b10001 g#
1&
#265000000
0&
#270000000
b11zz E#
b111111zz 9#
z"
b1100 1
b11 0
0.
b11111100 +
b11111100 ;#
b1100 S#
b11 ,
b11 <#
b11 T#
bz001z000 *
bz001z000 :#
0W#
b0 g#
1&
#275000000
0&
#280000000
0=
1/
19
1V#
bz101z010 *
bz101z010 :#
1J#
b11 i#
1&
#285000000
0&
#290000000
b101 F#
07
b10111zz 9#
05
b111 W"
1=
b101 3
0/
09
b1011100 +
b1011100 ;#
b101 Q#
0V#
b1 g#
b10101011 h#
bz001z000 *
bz001z000 :#
0J#
b100 i#
1&
#295000000
0&
#300000000
b11z1 E#
b10111z1 9#
1"
b1101 1
b10 0
b1010110 h#
b1011101 +
b1011101 ;#
b1101 S#
b10 ,
b10 <#
b10 T#
b10 g#
1&
#305000000
0&
#310000000
b110 W"
1.
bz001z100 *
bz001z100 :#
1W#
b11 g#
1&
#315000000
0&
#320000000
b11z0 E#
b10111z0 9#
0"
b1100 1
0.
b10101100 h#
b1011100 +
b1011100 ;#
b1100 S#
bz001z000 *
bz001z000 :#
0W#
b100 g#
1&
#325000000
0&
#330000000
b101 W"
b10111111 V"
1.
bz001z100 *
bz001z100 :#
1W#
b101 g#
1&
#335000000
0&
#340000000
b11z1 E#
b10111z1 9#
1"
b1101 1
0.
b1011000 h#
b1011101 +
b1011101 ;#
b1101 S#
bz001z000 *
bz001z000 :#
0W#
b110 g#
1&
#345000000
0&
#350000000
b100 W"
1.
bz001z100 *
bz001z100 :#
1W#
b111 g#
1&
#355000000
0&
#360000000
b11z0 E#
b10111z0 9#
0"
b1100 1
0.
b10110000 h#
b1011100 +
b1011100 ;#
b1100 S#
bz001z000 *
bz001z000 :#
0W#
b1000 g#
1&
#365000000
0&
#370000000
b11 W"
b10101111 V"
1.
bz001z100 *
bz001z100 :#
1W#
b1001 g#
1&
#375000000
0&
#380000000
b11z1 E#
b10111z1 9#
1"
b1101 1
0.
b1100000 h#
b1011101 +
b1011101 ;#
b1101 S#
bz001z000 *
bz001z000 :#
0W#
b1010 g#
1&
#385000000
0&
#390000000
b10 W"
1.
bz001z100 *
bz001z100 :#
1W#
b1011 g#
1&
#395000000
0&
#400000000
b11z0 E#
b10111z0 9#
0"
b1100 1
0.
b11000000 h#
b1011100 +
b1011100 ;#
b1100 S#
bz001z000 *
bz001z000 :#
0W#
b1100 g#
1&
#405000000
0&
#410000000
b1 W"
b10101011 V"
1.
bz001z100 *
bz001z100 :#
1W#
b1101 g#
1&
#415000000
0&
#420000000
b11z1 E#
b10111z1 9#
1"
b1101 1
0.
b10000000 h#
b1011101 +
b1011101 ;#
b1101 S#
bz001z000 *
bz001z000 :#
0W#
b1110 g#
1&
#425000000
0&
#430000000
b0 W"
1.
bz001z100 *
bz001z100 :#
1W#
b1111 g#
1&
#435000000
0&
#440000000
0.
b0 h#
bz001z000 *
bz001z000 :#
0W#
b10000 g#
1&
#445000000
0&
#450000000
1&"
b10101011 D"
b10101011 |
b10101011 5"
b111 W"
1.
bz001z100 *
bz001z100 :#
1W#
b10001 g#
1&
#455000000
0&
#460000000
b11zz E#
b10111zz 9#
z"
b1100 1
b11 0
0.
b1011100 +
b1011100 ;#
b1100 S#
b11 ,
b11 <#
b11 T#
bz001z000 *
bz001z000 :#
0W#
b0 g#
1&
#465000000
0&
#470000000
0=
1/
19
1V#
bz101z010 *
bz101z010 :#
1J#
b101 i#
1&
#475000000
0&
#480000000
1=
1:
0/
09
1I#
0V#
b1 g#
b110 h#
bz011z000 *
bz011z000 :#
0J#
b110 i#
1&
#485000000
0&
#490000000
b11z0 E#
b10111z0 9#
0"
b10 0
b1100 h#
b10 ,
b10 <#
b10 T#
b10 g#
1&
#495000000
0&
#500000000
b110 W"
b101011 V"
1.
bz011z100 *
bz011z100 :#
1W#
b11 g#
1&
0&"
#505000000
0&
#510000000
0.
b11000 h#
bz011z000 *
bz011z000 :#
0W#
b100 g#
1&
#515000000
0&
#520000000
b101 W"
1.
bz011z100 *
bz011z100 :#
1W#
b101 g#
1&
#525000000
0&
#530000000
0.
b110000 h#
bz011z000 *
bz011z000 :#
0W#
b110 g#
1&
#535000000
0&
#540000000
b100 W"
b1011 V"
1.
bz011z100 *
bz011z100 :#
1W#
b111 g#
1&
#545000000
0&
#550000000
0.
b1100000 h#
bz011z000 *
bz011z000 :#
0W#
b1000 g#
1&
#555000000
0&
#560000000
b11 W"
1.
bz011z100 *
bz011z100 :#
1W#
b1001 g#
1&
#565000000
0&
#570000000
0.
b11000000 h#
bz011z000 *
bz011z000 :#
0W#
b1010 g#
1&
#575000000
0&
#580000000
b10 W"
b11 V"
1.
bz011z100 *
bz011z100 :#
1W#
b1011 g#
1&
#585000000
0&
#590000000
b11z1 E#
b10111z1 9#
1"
b1101 1
0.
b10000000 h#
b1011101 +
b1011101 ;#
b1101 S#
bz011z000 *
bz011z000 :#
0W#
b1100 g#
1&
#595000000
0&
#600000000
b1 W"
b111 V"
1.
bz011z100 *
bz011z100 :#
1W#
b1101 g#
1&
#605000000
0&
#610000000
0.
b0 h#
bz011z000 *
bz011z000 :#
0W#
b1110 g#
1&
#615000000
0&
#620000000
b0 W"
1.
bz011z100 *
bz011z100 :#
1W#
b1111 g#
1&
#625000000
0&
#630000000
b11z0 E#
b10111z0 9#
0"
b1100 1
0.
b1011100 +
b1011100 ;#
b1100 S#
bz011z000 *
bz011z000 :#
0W#
b10000 g#
1&
#635000000
0&
#640000000
b10 <"
b110 D"
b110 |
b110 5"
b11111111111111111111111111111111 W"
b110 V"
1.
bz011z100 *
bz011z100 :#
1W#
b10001 g#
1&
#645000000
0&
#650000000
b11zz E#
b10111zz 9#
z"
b11 0
0.
b11 ,
b11 <#
b11 T#
bz011z000 *
bz011z000 :#
0W#
b0 g#
1&
#655000000
0&
#660000000
0=
19
bz011z010 *
bz011z010 :#
1J#
b111 i#
1&
#665000000
0&
#670000000
b111 W"
1=
09
b1 g#
b1 h#
bz011z000 *
bz011z000 :#
0J#
b1000 i#
1&
#675000000
0&
#680000000
b11z0 E#
b10111z0 9#
0"
b10 0
b10 h#
b10 ,
b10 <#
b10 T#
b10 g#
1&
#685000000
0&
#690000000
b110 W"
1.
bz011z100 *
bz011z100 :#
1W#
b11 g#
1&
#695000000
0&
#700000000
0.
b100 h#
bz011z000 *
bz011z000 :#
0W#
b100 g#
1&
#705000000
0&
#710000000
b101 W"
1.
bz011z100 *
bz011z100 :#
1W#
b101 g#
1&
#715000000
0&
#720000000
0.
b1000 h#
bz011z000 *
bz011z000 :#
0W#
b110 g#
1&
#725000000
0&
#730000000
b100 W"
1.
bz011z100 *
bz011z100 :#
1W#
b111 g#
1&
#735000000
0&
#740000000
0.
b10000 h#
bz011z000 *
bz011z000 :#
0W#
b1000 g#
1&
#745000000
0&
#750000000
b11 W"
1.
bz011z100 *
bz011z100 :#
1W#
b1001 g#
1&
#755000000
0&
#760000000
0.
b100000 h#
bz011z000 *
bz011z000 :#
0W#
b1010 g#
1&
#765000000
0&
#770000000
b10 W"
1.
bz011z100 *
bz011z100 :#
1W#
b1011 g#
1&
#775000000
0&
#780000000
0.
b1000000 h#
bz011z000 *
bz011z000 :#
0W#
b1100 g#
1&
#785000000
0&
#790000000
b1 W"
b10 V"
1.
bz011z100 *
bz011z100 :#
1W#
b1101 g#
1&
#795000000
0&
#800000000
0.
b10000000 h#
bz011z000 *
bz011z000 :#
0W#
b1110 g#
1&
#805000000
0&
#810000000
b0 W"
b0 V"
1.
bz011z100 *
bz011z100 :#
1W#
b1111 g#
1&
#815000000
0&
#820000000
b11z1 E#
b10111z1 9#
1"
b1101 1
0.
b0 h#
b1011101 +
b1011101 ;#
b1101 S#
bz011z000 *
bz011z000 :#
0W#
b10000 g#
1&
#825000000
0&
#830000000
b0xxxxxxxx ="
0+"
b1 D"
b1 |
b1 5"
b111 W"
b1 V"
1.
bz011z100 *
bz011z100 :#
1W#
b10001 g#
1&
#830001000
0>
#835000000
0&
#840000000
b11zz E#
b10111zz 9#
z"
b1100 1
b11 0
0.
b1011100 +
b1011100 ;#
b1100 S#
b11 ,
b11 <#
b11 T#
bz011z000 *
bz011z000 :#
0W#
b0 g#
1&
#845000000
0&
#850000000
b1 g#
b10 h#
b1001 i#
1&
#855000000
0&
#860000000
b11z0 E#
b10111z0 9#
0"
b10 0
b100 h#
b10 ,
b10 <#
b10 T#
b10 g#
1&
#865000000
0&
#870000000
b110 W"
1.
bz011z100 *
bz011z100 :#
1W#
b11 g#
1&
#875000000
0&
#880000000
0.
b1000 h#
bz011z000 *
bz011z000 :#
0W#
b100 g#
1&
#885000000
0&
#890000000
b101 W"
1.
bz011z100 *
bz011z100 :#
1W#
b101 g#
1&
#895000000
0&
#900000000
0.
b10000 h#
bz011z000 *
bz011z000 :#
0W#
b110 g#
1&
#905000000
0&
#910000000
b100 W"
1.
bz011z100 *
bz011z100 :#
1W#
b111 g#
1&
#915000000
0&
#920000000
0.
b100000 h#
bz011z000 *
bz011z000 :#
0W#
b1000 g#
1&
#925000000
0&
#930000000
b11 W"
1.
bz011z100 *
bz011z100 :#
1W#
b1001 g#
1&
#935000000
0&
#940000000
0.
b1000000 h#
bz011z000 *
bz011z000 :#
0W#
b1010 g#
1&
#945000000
0&
#950000000
b10 W"
1.
bz011z100 *
bz011z100 :#
1W#
b1011 g#
1&
#955000000
0&
#960000000
0.
b10000000 h#
bz011z000 *
bz011z000 :#
0W#
b1100 g#
1&
#965000000
0&
#970000000
b1 W"
1.
bz011z100 *
bz011z100 :#
1W#
b1101 g#
1&
#975000000
0&
#980000000
b11z1 E#
b10111z1 9#
1"
b1101 1
0.
b0 h#
b1011101 +
b1011101 ;#
b1101 S#
bz011z000 *
bz011z000 :#
0W#
b1110 g#
1&
#985000000
0&
#990000000
b0 W"
b11 V"
1.
bz011z100 *
bz011z100 :#
1W#
b1111 g#
1&
#995000000
0&
#1000000000
b11z0 E#
b10111z0 9#
0"
b1100 1
0.
b1011100 +
b1011100 ;#
b1100 S#
bz011z000 *
bz011z000 :#
0W#
b10000 g#
1&
#1005000000
0&
#1010000000
14"
b10 ="
b10 5"
b11111111111111111111111111111111 W"
b10 V"
1.
bz011z100 *
bz011z100 :#
1W#
b10001 g#
1&
#1015000000
0&
#1020000000
b11zz E#
b10111zz 9#
z"
b11 0
0.
b11 ,
b11 <#
b11 T#
bz011z000 *
bz011z000 :#
0W#
b0 g#
1&
#1025000000
0&
#1030000000
b1 g#
b10 h#
b1010 i#
1&
#1035000000
0&
#1040000000
b11z0 E#
b10111z0 9#
0"
b10 0
b100 h#
b10 ,
b10 <#
b10 T#
b10 g#
1&
#1045000000
0&
